$date
	Thu Nov 12 20:04:14 2015
$end
$version
	Bluespec VCD dumper 2.1
$end
$timescale
	1 us
$end
$scope module main $end
$scope module top $end
$var reg 1 ! CLK $end
$var reg 1 ! CLK $end
$var reg 1 " CAN_FIRE_RL_action_f_init_l185c10 $end
$var reg 1 # CAN_FIRE_RL_action_f_init_l185c10_1 $end
$var reg 1 $ CAN_FIRE_RL_action_f_init_l185c10_2 $end
$var reg 1 % CAN_FIRE_RL_action_f_init_l299c16 $end
$var reg 1 & CAN_FIRE_RL_action_f_update_l185c10 $end
$var reg 1 ' CAN_FIRE_RL_action_f_update_l185c10_1 $end
$var reg 1 ( CAN_FIRE_RL_action_f_update_l185c10_2 $end
$var reg 1 ) CAN_FIRE_RL_action_f_update_l299c16 $end
$var reg 1 * CAN_FIRE_RL_action_l176c10 $end
$var reg 1 + CAN_FIRE_RL_action_l176c10_1 $end
$var reg 1 , CAN_FIRE_RL_action_l176c10_2 $end
$var reg 1 - CAN_FIRE_RL_action_l186c13 $end
$var reg 1 . CAN_FIRE_RL_action_l186c13_1 $end
$var reg 1 / CAN_FIRE_RL_action_l186c13_2 $end
$var reg 1 0 CAN_FIRE_RL_action_l187c21 $end
$var reg 1 1 CAN_FIRE_RL_action_l187c21_1 $end
$var reg 1 2 CAN_FIRE_RL_action_l187c21_2 $end
$var reg 1 3 CAN_FIRE_RL_action_l188c21 $end
$var reg 1 4 CAN_FIRE_RL_action_l188c21_1 $end
$var reg 1 5 CAN_FIRE_RL_action_l188c21_2 $end
$var reg 1 6 CAN_FIRE_RL_action_l189c21 $end
$var reg 1 7 CAN_FIRE_RL_action_l189c21_1 $end
$var reg 1 8 CAN_FIRE_RL_action_l189c21_2 $end
$var reg 1 9 CAN_FIRE_RL_action_l190c21 $end
$var reg 1 : CAN_FIRE_RL_action_l190c21_1 $end
$var reg 1 ; CAN_FIRE_RL_action_l190c21_2 $end
$var reg 1 < CAN_FIRE_RL_action_l213c9 $end
$var reg 1 = CAN_FIRE_RL_action_l213c9_1 $end
$var reg 1 > CAN_FIRE_RL_action_l218c9 $end
$var reg 1 ? CAN_FIRE_RL_action_l218c9_1 $end
$var reg 1 @ CAN_FIRE_RL_action_l234c10 $end
$var reg 1 A CAN_FIRE_RL_action_l244c13 $end
$var reg 1 B CAN_FIRE_RL_action_l250c16 $end
$var reg 1 C CAN_FIRE_RL_action_l256c36 $end
$var reg 1 D CAN_FIRE_RL_action_l270c16 $end
$var reg 1 E CAN_FIRE_RL_action_l276c16 $end
$var reg 1 F CAN_FIRE_RL_action_l284c22 $end
$var reg 1 G CAN_FIRE_RL_action_l285c16 $end
$var reg 1 H CAN_FIRE_RL_action_l292c56 $end
$var reg 1 I CAN_FIRE_RL_action_l303c22 $end
$var reg 1 J CAN_FIRE_RL_action_l304c19 $end
$var reg 1 K CAN_FIRE_RL_action_l311c16 $end
$var reg 1 L CAN_FIRE_RL_auto_finish $end
$var reg 1 M CAN_FIRE_RL_auto_start $end
$var reg 1 N CAN_FIRE_RL_fsm_start $end
$var reg 1 O CAN_FIRE_RL_idle_l232c7 $end
$var reg 1 P CAN_FIRE_RL_mkConnectionGetPut $end
$var reg 1 Q CAN_FIRE_RL_mkConnectionGetPut_1 $end
$var reg 1 R CAN_FIRE_RL_mkConnectionGetPut_2 $end
$var reg 1 S CAN_FIRE_RL_mkConnectionGetPut_3 $end
$var reg 1 T CAN_FIRE_RL_restart $end
$var reg 1 U CAN_FIRE_RL_start_reg__dreg_update $end
$var reg 1 V CAN_FIRE_RL_state_every $end
$var reg 1 W CAN_FIRE_RL_state_fired__dreg_update $end
$var reg 1 X CAN_FIRE_RL_state_handle_abort $end
$var reg 1 Y CAN_FIRE___me_check_10 $end
$var reg 1 Z CAN_FIRE___me_check_11 $end
$var reg 1 [ CAN_FIRE___me_check_12 $end
$var reg 1 \ CAN_FIRE___me_check_13 $end
$var reg 1 ] CAN_FIRE___me_check_14 $end
$var reg 1 ^ CAN_FIRE___me_check_15 $end
$var reg 1 _ CAN_FIRE___me_check_16 $end
$var reg 1 ` CAN_FIRE___me_check_17 $end
$var reg 1 a CAN_FIRE___me_check_18 $end
$var reg 1 b CAN_FIRE___me_check_19 $end
$var reg 1 c CAN_FIRE___me_check_20 $end
$var reg 1 d CAN_FIRE___me_check_21 $end
$var reg 1 e CAN_FIRE___me_check_22 $end
$var reg 1 f CAN_FIRE___me_check_23 $end
$var reg 1 g CAN_FIRE___me_check_24 $end
$var reg 1 h CAN_FIRE___me_check_25 $end
$var reg 1 i CAN_FIRE___me_check_26 $end
$var reg 1 j CAN_FIRE___me_check_27 $end
$var reg 1 k CAN_FIRE___me_check_28 $end
$var reg 1 l CAN_FIRE___me_check_29 $end
$var reg 1 m CAN_FIRE___me_check_30 $end
$var reg 1 n CAN_FIRE___me_check_31 $end
$var reg 1 o CAN_FIRE___me_check_32 $end
$var reg 1 p CAN_FIRE___me_check_33 $end
$var reg 1 q CAN_FIRE___me_check_34 $end
$var reg 1 r CAN_FIRE___me_check_35 $end
$var reg 1 s CAN_FIRE___me_check_36 $end
$var reg 1 t CAN_FIRE___me_check_37 $end
$var reg 1 u CAN_FIRE___me_check_38 $end
$var reg 1 v CAN_FIRE___me_check_39 $end
$var reg 1 w CAN_FIRE___me_check_40 $end
$var reg 1 x CAN_FIRE___me_check_41 $end
$var reg 1 y CAN_FIRE___me_check_42 $end
$var reg 1 z CAN_FIRE___me_check_43 $end
$var reg 1 { CAN_FIRE___me_check_44 $end
$var reg 1 | CAN_FIRE___me_check_45 $end
$var reg 1 } CAN_FIRE___me_check_46 $end
$var reg 1 ~ CAN_FIRE___me_check_47 $end
$var reg 1 "! CAN_FIRE___me_check_48 $end
$var reg 1 "" CAN_FIRE___me_check_49 $end
$var reg 1 "# CAN_FIRE___me_check_9 $end
$var reg 1 "$ NOT_cpu_read_gpr_rg_xj_5_BITS_4_TO_0_99_00_BIT_ETC___d203 $end
$var reg 1 "% NOT_cpu_read_gpr_rg_xj_5_BITS_4_TO_0_99_00_BIT_ETC___d208 $end
$var reg 1 "& NOT_cpu_read_gpr_rg_xj_5_BITS_4_TO_0_99_00_BIT_ETC___d213 $end
$var reg 1 "' NOT_cpu_read_gpr_rg_xj_5_BITS_4_TO_0_99_00_BIT_ETC___d218 $end
$var reg 1 "( NOT_cpu_read_gpr_rg_xj_5_BITS_4_TO_0_99_00_BIT_ETC___d223 $end
$var reg 1 ") NOT_cpu_read_gpr_rg_xj_5_BITS_4_TO_0_99_00_BIT_ETC___d228 $end
$var reg 1 "* NOT_cpu_read_gpr_rg_xj_5_BITS_4_TO_0_99_00_BIT_ETC___d233 $end
$var reg 1 "+ NOT_cpu_read_gpr_rg_xj_5_BITS_4_TO_0_99_PLUS_1_ETC___d242 $end
$var reg 1 ", NOT_cpu_read_gpr_rg_xj_5_BITS_4_TO_0_99_PLUS_1_ETC___d247 $end
$var reg 1 "- NOT_cpu_read_gpr_rg_xj_5_BITS_4_TO_0_99_PLUS_1_ETC___d252 $end
$var reg 1 ". NOT_cpu_read_gpr_rg_xj_5_BITS_4_TO_0_99_PLUS_1_ETC___d257 $end
$var reg 1 "/ NOT_cpu_read_gpr_rg_xj_5_BITS_4_TO_0_99_PLUS_1_ETC___d262 $end
$var reg 1 "0 NOT_cpu_read_gpr_rg_xj_5_BITS_4_TO_0_99_PLUS_1_ETC___d267 $end
$var reg 1 "1 NOT_cpu_read_gpr_rg_xj_5_BITS_4_TO_0_99_PLUS_1_ETC___d272 $end
$var reg 1 "2 NOT_cpu_read_gpr_rg_xj_5_BITS_4_TO_0_99_PLUS_2_ETC___d281 $end
$var reg 1 "3 NOT_cpu_read_gpr_rg_xj_5_BITS_4_TO_0_99_PLUS_2_ETC___d286 $end
$var reg 1 "4 NOT_cpu_read_gpr_rg_xj_5_BITS_4_TO_0_99_PLUS_2_ETC___d291 $end
$var reg 1 "5 NOT_cpu_read_gpr_rg_xj_5_BITS_4_TO_0_99_PLUS_2_ETC___d296 $end
$var reg 1 "6 NOT_cpu_read_gpr_rg_xj_5_BITS_4_TO_0_99_PLUS_2_ETC___d301 $end
$var reg 1 "7 NOT_cpu_read_gpr_rg_xj_5_BITS_4_TO_0_99_PLUS_2_ETC___d306 $end
$var reg 1 "8 NOT_cpu_read_gpr_rg_xj_5_BITS_4_TO_0_99_PLUS_2_ETC___d311 $end
$var reg 1 "9 NOT_cpu_read_gpr_rg_xj_5_BITS_4_TO_0_99_PLUS_3_ETC___d320 $end
$var reg 1 ": NOT_cpu_read_gpr_rg_xj_5_BITS_4_TO_0_99_PLUS_3_ETC___d325 $end
$var reg 1 "; NOT_cpu_read_gpr_rg_xj_5_BITS_4_TO_0_99_PLUS_3_ETC___d330 $end
$var reg 1 "< NOT_cpu_read_gpr_rg_xj_5_BITS_4_TO_0_99_PLUS_3_ETC___d335 $end
$var reg 1 "= NOT_cpu_read_gpr_rg_xj_5_BITS_4_TO_0_99_PLUS_3_ETC___d340 $end
$var reg 1 "> NOT_cpu_read_gpr_rg_xj_5_BITS_4_TO_0_99_PLUS_3_ETC___d345 $end
$var reg 1 "? NOT_cpu_read_gpr_rg_xj_5_BITS_4_TO_0_99_PLUS_3_ETC___d350 $end
$var reg 1 "@ NOT_cpu_read_pc__55_BITS_31_TO_28_56_EQ_0_57_5_ETC___d163 $end
$var reg 1 "A NOT_cpu_read_pc__55_BITS_31_TO_28_56_EQ_0_57_5_ETC___d168 $end
$var reg 1 "B NOT_cpu_read_pc__55_BITS_31_TO_28_56_EQ_0_57_5_ETC___d173 $end
$var reg 1 "C NOT_cpu_read_pc__55_BITS_31_TO_28_56_EQ_0_57_5_ETC___d178 $end
$var reg 1 "D NOT_cpu_read_pc__55_BITS_31_TO_28_56_EQ_0_57_5_ETC___d183 $end
$var reg 1 "E NOT_cpu_read_pc__55_BITS_31_TO_28_56_EQ_0_57_5_ETC___d188 $end
$var reg 1 "F NOT_cpu_read_pc__55_BITS_31_TO_28_56_EQ_0_57___d158 $end
$var reg 33 "G NOT_rg_console_command_2_BITS_31_TO_0_28_EQ_1__ETC___d133 $end
$var reg 1 "H RST_N $end
$var reg 320 "I TASK_c_get_console_command___d123 $end
$var reg 1 "J WILL_FIRE_RL_action_f_init_l185c10 $end
$var reg 1 "K WILL_FIRE_RL_action_f_init_l185c10_1 $end
$var reg 1 "L WILL_FIRE_RL_action_f_init_l185c10_2 $end
$var reg 1 "M WILL_FIRE_RL_action_f_init_l299c16 $end
$var reg 1 "N WILL_FIRE_RL_action_f_update_l185c10 $end
$var reg 1 "O WILL_FIRE_RL_action_f_update_l185c10_1 $end
$var reg 1 "P WILL_FIRE_RL_action_f_update_l185c10_2 $end
$var reg 1 "Q WILL_FIRE_RL_action_f_update_l299c16 $end
$var reg 1 "R WILL_FIRE_RL_action_l176c10 $end
$var reg 1 "S WILL_FIRE_RL_action_l176c10_1 $end
$var reg 1 "T WILL_FIRE_RL_action_l176c10_2 $end
$var reg 1 "U WILL_FIRE_RL_action_l186c13 $end
$var reg 1 "V WILL_FIRE_RL_action_l186c13_1 $end
$var reg 1 "W WILL_FIRE_RL_action_l186c13_2 $end
$var reg 1 "X WILL_FIRE_RL_action_l187c21 $end
$var reg 1 "Y WILL_FIRE_RL_action_l187c21_1 $end
$var reg 1 "Z WILL_FIRE_RL_action_l187c21_2 $end
$var reg 1 "[ WILL_FIRE_RL_action_l188c21 $end
$var reg 1 "\ WILL_FIRE_RL_action_l188c21_1 $end
$var reg 1 "] WILL_FIRE_RL_action_l188c21_2 $end
$var reg 1 "^ WILL_FIRE_RL_action_l189c21 $end
$var reg 1 "_ WILL_FIRE_RL_action_l189c21_1 $end
$var reg 1 "` WILL_FIRE_RL_action_l189c21_2 $end
$var reg 1 "a WILL_FIRE_RL_action_l190c21 $end
$var reg 1 "b WILL_FIRE_RL_action_l190c21_1 $end
$var reg 1 "c WILL_FIRE_RL_action_l190c21_2 $end
$var reg 1 "d WILL_FIRE_RL_action_l213c9 $end
$var reg 1 "e WILL_FIRE_RL_action_l213c9_1 $end
$var reg 1 "f WILL_FIRE_RL_action_l218c9 $end
$var reg 1 "g WILL_FIRE_RL_action_l218c9_1 $end
$var reg 1 "h WILL_FIRE_RL_action_l234c10 $end
$var reg 1 "i WILL_FIRE_RL_action_l244c13 $end
$var reg 1 "j WILL_FIRE_RL_action_l250c16 $end
$var reg 1 "k WILL_FIRE_RL_action_l256c36 $end
$var reg 1 "l WILL_FIRE_RL_action_l270c16 $end
$var reg 1 "m WILL_FIRE_RL_action_l276c16 $end
$var reg 1 "n WILL_FIRE_RL_action_l284c22 $end
$var reg 1 "o WILL_FIRE_RL_action_l285c16 $end
$var reg 1 "p WILL_FIRE_RL_action_l292c56 $end
$var reg 1 "q WILL_FIRE_RL_action_l303c22 $end
$var reg 1 "r WILL_FIRE_RL_action_l304c19 $end
$var reg 1 "s WILL_FIRE_RL_action_l311c16 $end
$var reg 1 "t WILL_FIRE_RL_auto_finish $end
$var reg 1 "u WILL_FIRE_RL_auto_start $end
$var reg 1 "v WILL_FIRE_RL_fsm_start $end
$var reg 1 "w WILL_FIRE_RL_idle_l232c7 $end
$var reg 1 "x WILL_FIRE_RL_mkConnectionGetPut $end
$var reg 1 "y WILL_FIRE_RL_mkConnectionGetPut_1 $end
$var reg 1 "z WILL_FIRE_RL_mkConnectionGetPut_2 $end
$var reg 1 "{ WILL_FIRE_RL_mkConnectionGetPut_3 $end
$var reg 1 "| WILL_FIRE_RL_restart $end
$var reg 1 "} WILL_FIRE_RL_start_reg__dreg_update $end
$var reg 1 "~ WILL_FIRE_RL_state_every $end
$var reg 1 #! WILL_FIRE_RL_state_fired__dreg_update $end
$var reg 1 #" WILL_FIRE_RL_state_handle_abort $end
$var reg 1 ## WILL_FIRE___me_check_10 $end
$var reg 1 #$ WILL_FIRE___me_check_11 $end
$var reg 1 #% WILL_FIRE___me_check_12 $end
$var reg 1 #& WILL_FIRE___me_check_13 $end
$var reg 1 #' WILL_FIRE___me_check_14 $end
$var reg 1 #( WILL_FIRE___me_check_15 $end
$var reg 1 #) WILL_FIRE___me_check_16 $end
$var reg 1 #* WILL_FIRE___me_check_17 $end
$var reg 1 #+ WILL_FIRE___me_check_18 $end
$var reg 1 #, WILL_FIRE___me_check_19 $end
$var reg 1 #- WILL_FIRE___me_check_20 $end
$var reg 1 #. WILL_FIRE___me_check_21 $end
$var reg 1 #/ WILL_FIRE___me_check_22 $end
$var reg 1 #0 WILL_FIRE___me_check_23 $end
$var reg 1 #1 WILL_FIRE___me_check_24 $end
$var reg 1 #2 WILL_FIRE___me_check_25 $end
$var reg 1 #3 WILL_FIRE___me_check_26 $end
$var reg 1 #4 WILL_FIRE___me_check_27 $end
$var reg 1 #5 WILL_FIRE___me_check_28 $end
$var reg 1 #6 WILL_FIRE___me_check_29 $end
$var reg 1 #7 WILL_FIRE___me_check_30 $end
$var reg 1 #8 WILL_FIRE___me_check_31 $end
$var reg 1 #9 WILL_FIRE___me_check_32 $end
$var reg 1 #: WILL_FIRE___me_check_33 $end
$var reg 1 #; WILL_FIRE___me_check_34 $end
$var reg 1 #< WILL_FIRE___me_check_35 $end
$var reg 1 #= WILL_FIRE___me_check_36 $end
$var reg 1 #> WILL_FIRE___me_check_37 $end
$var reg 1 #? WILL_FIRE___me_check_38 $end
$var reg 1 #@ WILL_FIRE___me_check_39 $end
$var reg 1 #A WILL_FIRE___me_check_40 $end
$var reg 1 #B WILL_FIRE___me_check_41 $end
$var reg 1 #C WILL_FIRE___me_check_42 $end
$var reg 1 #D WILL_FIRE___me_check_43 $end
$var reg 1 #E WILL_FIRE___me_check_44 $end
$var reg 1 #F WILL_FIRE___me_check_45 $end
$var reg 1 #G WILL_FIRE___me_check_46 $end
$var reg 1 #H WILL_FIRE___me_check_47 $end
$var reg 1 #I WILL_FIRE___me_check_48 $end
$var reg 1 #J WILL_FIRE___me_check_49 $end
$var reg 1 #K WILL_FIRE___me_check_9 $end
$var reg 32 #L addr__h158696 $end
$var reg 32 #M console_argc__h1571 $end
$var reg 32 #N console_command__h1572 $end
$var reg 110 #O cpu_dmem_ifc_tx_get___d12 $end
$var reg 110 #P cpu_imem_ifc_tx_get___d4 $end
$var reg 4 #Q cpu_read_gpr_rg_xj_5_BITS_4_TO_0_99_00_BITS_11_ETC___d224 $end
$var reg 1 #R cpu_read_gpr_rg_xj_5_BITS_4_TO_0_99_00_BITS_11_ETC___d225 $end
$var reg 4 #S cpu_read_gpr_rg_xj_5_BITS_4_TO_0_99_00_BITS_15_ETC___d219 $end
$var reg 1 #T cpu_read_gpr_rg_xj_5_BITS_4_TO_0_99_00_BITS_15_ETC___d220 $end
$var reg 4 #U cpu_read_gpr_rg_xj_5_BITS_4_TO_0_99_00_BITS_19_ETC___d214 $end
$var reg 1 #V cpu_read_gpr_rg_xj_5_BITS_4_TO_0_99_00_BITS_19_ETC___d215 $end
$var reg 4 #W cpu_read_gpr_rg_xj_5_BITS_4_TO_0_99_00_BITS_23_ETC___d209 $end
$var reg 1 #X cpu_read_gpr_rg_xj_5_BITS_4_TO_0_99_00_BITS_23_ETC___d210 $end
$var reg 4 #Y cpu_read_gpr_rg_xj_5_BITS_4_TO_0_99_00_BITS_27_ETC___d204 $end
$var reg 1 #Z cpu_read_gpr_rg_xj_5_BITS_4_TO_0_99_00_BITS_27_ETC___d205 $end
$var reg 4 #[ cpu_read_gpr_rg_xj_5_BITS_4_TO_0_99_00_BITS_31_ETC___d201 $end
$var reg 1 #\ cpu_read_gpr_rg_xj_5_BITS_4_TO_0_99_00_BITS_31_ETC___d202 $end
$var reg 1 #] cpu_read_gpr_rg_xj_5_BITS_4_TO_0_99_00_BITS_31_ETC___d206 $end
$var reg 1 #^ cpu_read_gpr_rg_xj_5_BITS_4_TO_0_99_00_BITS_31_ETC___d211 $end
$var reg 1 #_ cpu_read_gpr_rg_xj_5_BITS_4_TO_0_99_00_BITS_31_ETC___d216 $end
$var reg 1 #` cpu_read_gpr_rg_xj_5_BITS_4_TO_0_99_00_BITS_31_ETC___d221 $end
$var reg 1 #a cpu_read_gpr_rg_xj_5_BITS_4_TO_0_99_00_BITS_31_ETC___d226 $end
$var reg 1 #b cpu_read_gpr_rg_xj_5_BITS_4_TO_0_99_00_BITS_31_ETC___d231 $end
$var reg 4 #c cpu_read_gpr_rg_xj_5_BITS_4_TO_0_99_00_BITS_3__ETC___d234 $end
$var reg 4 #d cpu_read_gpr_rg_xj_5_BITS_4_TO_0_99_00_BITS_7__ETC___d229 $end
$var reg 1 #e cpu_read_gpr_rg_xj_5_BITS_4_TO_0_99_00_BITS_7__ETC___d230 $end
$var reg 4 #f cpu_read_gpr_rg_xj_5_BITS_4_TO_0_99_PLUS_1_38__ETC___d240 $end
$var reg 1 #g cpu_read_gpr_rg_xj_5_BITS_4_TO_0_99_PLUS_1_38__ETC___d241 $end
$var reg 4 #h cpu_read_gpr_rg_xj_5_BITS_4_TO_0_99_PLUS_1_38__ETC___d243 $end
$var reg 1 #i cpu_read_gpr_rg_xj_5_BITS_4_TO_0_99_PLUS_1_38__ETC___d244 $end
$var reg 1 #j cpu_read_gpr_rg_xj_5_BITS_4_TO_0_99_PLUS_1_38__ETC___d245 $end
$var reg 4 #k cpu_read_gpr_rg_xj_5_BITS_4_TO_0_99_PLUS_1_38__ETC___d248 $end
$var reg 1 #l cpu_read_gpr_rg_xj_5_BITS_4_TO_0_99_PLUS_1_38__ETC___d249 $end
$var reg 1 #m cpu_read_gpr_rg_xj_5_BITS_4_TO_0_99_PLUS_1_38__ETC___d250 $end
$var reg 4 #n cpu_read_gpr_rg_xj_5_BITS_4_TO_0_99_PLUS_1_38__ETC___d253 $end
$var reg 1 #o cpu_read_gpr_rg_xj_5_BITS_4_TO_0_99_PLUS_1_38__ETC___d254 $end
$var reg 1 #p cpu_read_gpr_rg_xj_5_BITS_4_TO_0_99_PLUS_1_38__ETC___d255 $end
$var reg 4 #q cpu_read_gpr_rg_xj_5_BITS_4_TO_0_99_PLUS_1_38__ETC___d258 $end
$var reg 1 #r cpu_read_gpr_rg_xj_5_BITS_4_TO_0_99_PLUS_1_38__ETC___d259 $end
$var reg 1 #s cpu_read_gpr_rg_xj_5_BITS_4_TO_0_99_PLUS_1_38__ETC___d260 $end
$var reg 4 #t cpu_read_gpr_rg_xj_5_BITS_4_TO_0_99_PLUS_1_38__ETC___d263 $end
$var reg 1 #u cpu_read_gpr_rg_xj_5_BITS_4_TO_0_99_PLUS_1_38__ETC___d264 $end
$var reg 1 #v cpu_read_gpr_rg_xj_5_BITS_4_TO_0_99_PLUS_1_38__ETC___d265 $end
$var reg 4 #w cpu_read_gpr_rg_xj_5_BITS_4_TO_0_99_PLUS_1_38__ETC___d268 $end
$var reg 1 #x cpu_read_gpr_rg_xj_5_BITS_4_TO_0_99_PLUS_1_38__ETC___d269 $end
$var reg 1 #y cpu_read_gpr_rg_xj_5_BITS_4_TO_0_99_PLUS_1_38__ETC___d270 $end
$var reg 4 #z cpu_read_gpr_rg_xj_5_BITS_4_TO_0_99_PLUS_1_38__ETC___d273 $end
$var reg 32 #{ cpu_read_gpr_rg_xj_5_BITS_4_TO_0_99_PLUS_1_38___d239 $end
$var reg 4 #| cpu_read_gpr_rg_xj_5_BITS_4_TO_0_99_PLUS_2_77__ETC___d279 $end
$var reg 1 #} cpu_read_gpr_rg_xj_5_BITS_4_TO_0_99_PLUS_2_77__ETC___d280 $end
$var reg 4 #~ cpu_read_gpr_rg_xj_5_BITS_4_TO_0_99_PLUS_2_77__ETC___d282 $end
$var reg 1 $! cpu_read_gpr_rg_xj_5_BITS_4_TO_0_99_PLUS_2_77__ETC___d283 $end
$var reg 1 $" cpu_read_gpr_rg_xj_5_BITS_4_TO_0_99_PLUS_2_77__ETC___d284 $end
$var reg 4 $# cpu_read_gpr_rg_xj_5_BITS_4_TO_0_99_PLUS_2_77__ETC___d287 $end
$var reg 1 $$ cpu_read_gpr_rg_xj_5_BITS_4_TO_0_99_PLUS_2_77__ETC___d288 $end
$var reg 1 $% cpu_read_gpr_rg_xj_5_BITS_4_TO_0_99_PLUS_2_77__ETC___d289 $end
$var reg 4 $& cpu_read_gpr_rg_xj_5_BITS_4_TO_0_99_PLUS_2_77__ETC___d292 $end
$var reg 1 $' cpu_read_gpr_rg_xj_5_BITS_4_TO_0_99_PLUS_2_77__ETC___d293 $end
$var reg 1 $( cpu_read_gpr_rg_xj_5_BITS_4_TO_0_99_PLUS_2_77__ETC___d294 $end
$var reg 4 $) cpu_read_gpr_rg_xj_5_BITS_4_TO_0_99_PLUS_2_77__ETC___d297 $end
$var reg 1 $* cpu_read_gpr_rg_xj_5_BITS_4_TO_0_99_PLUS_2_77__ETC___d298 $end
$var reg 1 $+ cpu_read_gpr_rg_xj_5_BITS_4_TO_0_99_PLUS_2_77__ETC___d299 $end
$var reg 4 $, cpu_read_gpr_rg_xj_5_BITS_4_TO_0_99_PLUS_2_77__ETC___d302 $end
$var reg 1 $- cpu_read_gpr_rg_xj_5_BITS_4_TO_0_99_PLUS_2_77__ETC___d303 $end
$var reg 1 $. cpu_read_gpr_rg_xj_5_BITS_4_TO_0_99_PLUS_2_77__ETC___d304 $end
$var reg 4 $/ cpu_read_gpr_rg_xj_5_BITS_4_TO_0_99_PLUS_2_77__ETC___d307 $end
$var reg 1 $0 cpu_read_gpr_rg_xj_5_BITS_4_TO_0_99_PLUS_2_77__ETC___d308 $end
$var reg 1 $1 cpu_read_gpr_rg_xj_5_BITS_4_TO_0_99_PLUS_2_77__ETC___d309 $end
$var reg 4 $2 cpu_read_gpr_rg_xj_5_BITS_4_TO_0_99_PLUS_2_77__ETC___d312 $end
$var reg 32 $3 cpu_read_gpr_rg_xj_5_BITS_4_TO_0_99_PLUS_2_77___d278 $end
$var reg 4 $4 cpu_read_gpr_rg_xj_5_BITS_4_TO_0_99_PLUS_3_16__ETC___d318 $end
$var reg 1 $5 cpu_read_gpr_rg_xj_5_BITS_4_TO_0_99_PLUS_3_16__ETC___d319 $end
$var reg 4 $6 cpu_read_gpr_rg_xj_5_BITS_4_TO_0_99_PLUS_3_16__ETC___d321 $end
$var reg 1 $7 cpu_read_gpr_rg_xj_5_BITS_4_TO_0_99_PLUS_3_16__ETC___d322 $end
$var reg 1 $8 cpu_read_gpr_rg_xj_5_BITS_4_TO_0_99_PLUS_3_16__ETC___d323 $end
$var reg 4 $9 cpu_read_gpr_rg_xj_5_BITS_4_TO_0_99_PLUS_3_16__ETC___d326 $end
$var reg 1 $: cpu_read_gpr_rg_xj_5_BITS_4_TO_0_99_PLUS_3_16__ETC___d327 $end
$var reg 1 $; cpu_read_gpr_rg_xj_5_BITS_4_TO_0_99_PLUS_3_16__ETC___d328 $end
$var reg 4 $< cpu_read_gpr_rg_xj_5_BITS_4_TO_0_99_PLUS_3_16__ETC___d331 $end
$var reg 1 $= cpu_read_gpr_rg_xj_5_BITS_4_TO_0_99_PLUS_3_16__ETC___d332 $end
$var reg 1 $> cpu_read_gpr_rg_xj_5_BITS_4_TO_0_99_PLUS_3_16__ETC___d333 $end
$var reg 4 $? cpu_read_gpr_rg_xj_5_BITS_4_TO_0_99_PLUS_3_16__ETC___d336 $end
$var reg 1 $@ cpu_read_gpr_rg_xj_5_BITS_4_TO_0_99_PLUS_3_16__ETC___d337 $end
$var reg 1 $A cpu_read_gpr_rg_xj_5_BITS_4_TO_0_99_PLUS_3_16__ETC___d338 $end
$var reg 4 $B cpu_read_gpr_rg_xj_5_BITS_4_TO_0_99_PLUS_3_16__ETC___d341 $end
$var reg 1 $C cpu_read_gpr_rg_xj_5_BITS_4_TO_0_99_PLUS_3_16__ETC___d342 $end
$var reg 1 $D cpu_read_gpr_rg_xj_5_BITS_4_TO_0_99_PLUS_3_16__ETC___d343 $end
$var reg 4 $E cpu_read_gpr_rg_xj_5_BITS_4_TO_0_99_PLUS_3_16__ETC___d346 $end
$var reg 1 $F cpu_read_gpr_rg_xj_5_BITS_4_TO_0_99_PLUS_3_16__ETC___d347 $end
$var reg 1 $G cpu_read_gpr_rg_xj_5_BITS_4_TO_0_99_PLUS_3_16__ETC___d348 $end
$var reg 4 $H cpu_read_gpr_rg_xj_5_BITS_4_TO_0_99_PLUS_3_16__ETC___d351 $end
$var reg 32 $I cpu_read_gpr_rg_xj_5_BITS_4_TO_0_99_PLUS_3_16___d317 $end
$var reg 32 $J cpu_read_gpr_rg_xj_5_BITS_4_TO_0_99___d200 $end
$var reg 1 $K cpu_read_pc__55_BITS_11_TO_8_79_EQ_0___d180 $end
$var reg 4 $L cpu_read_pc__55_BITS_11_TO_8___d179 $end
$var reg 1 $M cpu_read_pc__55_BITS_15_TO_12_74_EQ_0___d175 $end
$var reg 4 $N cpu_read_pc__55_BITS_15_TO_12___d174 $end
$var reg 1 $O cpu_read_pc__55_BITS_19_TO_16_69_EQ_0___d170 $end
$var reg 4 $P cpu_read_pc__55_BITS_19_TO_16___d169 $end
$var reg 1 $Q cpu_read_pc__55_BITS_23_TO_20_64_EQ_0___d165 $end
$var reg 4 $R cpu_read_pc__55_BITS_23_TO_20___d164 $end
$var reg 1 $S cpu_read_pc__55_BITS_27_TO_24_59_EQ_0___d160 $end
$var reg 4 $T cpu_read_pc__55_BITS_27_TO_24___d159 $end
$var reg 1 $U cpu_read_pc__55_BITS_31_TO_28_56_EQ_0_57_AND_c_ETC___d161 $end
$var reg 1 $V cpu_read_pc__55_BITS_31_TO_28_56_EQ_0_57_AND_c_ETC___d166 $end
$var reg 1 $W cpu_read_pc__55_BITS_31_TO_28_56_EQ_0_57_AND_c_ETC___d171 $end
$var reg 1 $X cpu_read_pc__55_BITS_31_TO_28_56_EQ_0_57_AND_c_ETC___d176 $end
$var reg 1 $Y cpu_read_pc__55_BITS_31_TO_28_56_EQ_0_57_AND_c_ETC___d181 $end
$var reg 1 $Z cpu_read_pc__55_BITS_31_TO_28_56_EQ_0_57_AND_c_ETC___d186 $end
$var reg 1 $[ cpu_read_pc__55_BITS_31_TO_28_56_EQ_0___d157 $end
$var reg 4 $\ cpu_read_pc__55_BITS_31_TO_28___d156 $end
$var reg 4 $] cpu_read_pc__55_BITS_3_TO_0___d189 $end
$var reg 1 $^ cpu_read_pc__55_BITS_7_TO_4_84_EQ_0___d185 $end
$var reg 4 $_ cpu_read_pc__55_BITS_7_TO_4___d184 $end
$var reg 32 $` cpu_read_pc____d155 $end
$var reg 1 $a cpu_stop_reason__39_EQ_0___d140 $end
$var reg 1 $b cpu_stop_reason__39_EQ_1___d141 $end
$var reg 1 $c cpu_stop_reason__39_EQ_2___d142 $end
$var reg 1 $d cpu_stop_reason__39_EQ_3___d143 $end
$var reg 1 $e cpu_stop_reason__39_EQ_4___d144 $end
$var reg 3 $f cpu_stop_reason____d139 $end
$var reg 32 $g cycle__h120244 $end
$var reg 32 $h instret__h120243 $end
$var reg 5 $i r__h124329 $end
$var reg 5 $j r__h125947 $end
$var reg 5 $k r__h127573 $end
$var reg 1 $l rg_console_command_2_BITS_31_TO_0_28_EQ_1___d129 $end
$var reg 32 $m rg_console_command_BITS_95_TO_64___h119395 $end
$var reg 320 $n rg_console_command__h119371 $end
$var reg 64 $o v___1__h156924 $end
$var reg 64 $p v__h116626 $end
$var reg 64 $q v__h116876 $end
$var reg 64 $r v__h116933 $end
$var reg 64 $s v__h119703 $end
$var reg 64 $t v__h139890 $end
$var reg 64 $u v__h140506 $end
$var reg 64 $v v__h140555 $end
$var reg 64 $w v__h141850 $end
$var reg 64 $x v__h143571 $end
$var reg 64 $y v__h159602 $end
$var reg 5 $z x_BITS_4_TO_0___h127578 $end
$var reg 6 ${ x__h127577 $end
$var reg 6 $| x__h129132 $end
$var reg 1 %. abort $end
$var reg 32 %/ rg_addr $end
$var reg 320 %0 rg_console_command $end
$var reg 6 %1 rg_xj $end
$var reg 1 %2 running $end
$var reg 1 %3 start_reg $end
$var reg 1 %4 start_reg_1 $end
$var reg 1 %5 start_reg_2 $end
$var reg 1 %6 start_wire $end
$var reg 1 %7 state_can_overlap $end
$var reg 1 %8 state_fired $end
$var reg 1 %9 state_fired_1 $end
$var reg 6 %: state_mkFSMstate $end
$var reg 1 %; state_overlap_pw $end
$var reg 1 %< state_set_pw $end
$scope module cpu $end
$var reg 1 ! CLK $end
$var reg 1 %= CAN_FIRE_RL_cpu_stop $end
$var reg 1 %> CAN_FIRE_RL_dex_rl_exec_IMM $end
$var reg 1 %? CAN_FIRE_RL_dex_rl_exec_RR $end
$var reg 1 %@ CAN_FIRE_RL_dex_rl_exec_auipc $end
$var reg 1 %A CAN_FIRE_RL_dex_rl_exec_branch $end
$var reg 1 %B CAN_FIRE_RL_dex_rl_exec_jal $end
$var reg 1 %C CAN_FIRE_RL_dex_rl_exec_jalr $end
$var reg 1 %D CAN_FIRE_RL_dex_rl_exec_load $end
$var reg 1 %E CAN_FIRE_RL_dex_rl_exec_lui $end
$var reg 1 %F CAN_FIRE_RL_dex_rl_exec_mul_32 $end
$var reg 1 %G CAN_FIRE_RL_dex_rl_exec_store $end
$var reg 1 %H CAN_FIRE_RL_dex_rl_mkCommitData $end
$var reg 1 %I CAN_FIRE_RL_dex_rl_temp_c00 $end
$var reg 1 %J CAN_FIRE_RL_rl_commit_1 $end
$var reg 1 %K CAN_FIRE_RL_rl_commit_2 $end
$var reg 1 %L CAN_FIRE_RL_rl_count_cycles $end
$var reg 1 %M CAN_FIRE_RL_rl_fetch_getrsp $end
$var reg 1 %N CAN_FIRE_RL_rl_fetch_mkreq $end
$var reg 1 %O CAN_FIRE_RL_rl_flush $end
$var reg 1 %P CAN_FIRE_RL_rl_read_dec_ex $end
$var reg 1 %Q CAN_FIRE_RL_rl_update_dec_ex $end
$var reg 1 %R CAN_FIRE_dmem_ifc_rx_put $end
$var reg 1 %S CAN_FIRE_dmem_ifc_tx_get $end
$var reg 1 %T CAN_FIRE_imem_ifc_rx_put $end
$var reg 1 %U CAN_FIRE_imem_ifc_tx_get $end
$var reg 1 %V CAN_FIRE_read_cycle $end
$var reg 1 %W CAN_FIRE_read_gpr $end
$var reg 1 %X CAN_FIRE_read_instret $end
$var reg 1 %Y CAN_FIRE_read_pc $end
$var reg 1 %Z CAN_FIRE_req_read_memW $end
$var reg 1 %[ CAN_FIRE_reset $end
$var reg 1 %\ CAN_FIRE_rsp_read_memW $end
$var reg 1 %] CAN_FIRE_run_continue $end
$var reg 1 %^ CAN_FIRE_run_step $end
$var reg 1 %_ CAN_FIRE_set_verbosity $end
$var reg 1 %` CAN_FIRE_stop $end
$var reg 1 %a CAN_FIRE_stop_reason $end
$var reg 1 %b CAN_FIRE_write_gpr $end
$var reg 1 %c CAN_FIRE_write_memW $end
$var reg 1 %d CAN_FIRE_write_pc $end
$var reg 73 %e DONTCARE_CONCAT_4185915392___d443 $end
$var reg 73 %f DONTCARE_CONCAT_4185915408___d642 $end
$var reg 118 %g IF_NOT_dex_val_ls_whas__81_31_OR_NOT_dex_val_l_ETC___d350 $end
$var reg 118 %h IF_NOT_dex_val_wb_whas__64_97_OR_NOT_dex_val_w_ETC___d352 $end
$var reg 118 %i IF_dex_rg_cd_wget__81_BITS_117_TO_116_83_EQ_0__ETC___d501 $end
$var reg 1 %j IF_dex_rg_fwd_data_dex_7_BIT_37_8_THEN_IF_dex__ETC___d122 $end
$var reg 1 %k IF_dex_rg_fwd_data_dex_7_BIT_37_8_THEN_IF_dex__ETC___d124 $end
$var reg 32 %l IF_dex_rg_fwd_data_dex_7_BIT_37_8_THEN_IF_dex__ETC___d49 $end
$var reg 107 %m IF_dex_val_ls_whas__81_AND_dex_val_ls_wget__82_ETC___d322 $end
$var reg 118 %n IF_dex_val_wb_whas__64_AND_dex_val_wb_wget__65_ETC___d351 $end
$var reg 118 %o IF_dex_val_wb_whas__64_AND_dex_val_wb_wget__65_ETC___d354 $end
$var reg 1 %p NOT_dex_rg_instr_wget_BITS_14_TO_12_1_EQ_0b0_2___d82 $end
$var reg 1 %q NOT_dex_rg_instr_wget_BITS_14_TO_12_1_EQ_0b100_7___d92 $end
$var reg 1 %r NOT_dex_rg_instr_wget_BITS_14_TO_12_1_EQ_0b101_4___d86 $end
$var reg 1 %s NOT_dex_rg_instr_wget_BITS_14_TO_12_1_EQ_0b10_5___d88 $end
$var reg 1 %t NOT_dex_rg_instr_wget_BITS_14_TO_12_1_EQ_0b110_9___d153 $end
$var reg 1 %u NOT_dex_rg_instr_wget_BITS_14_TO_12_1_EQ_0b11_6___d90 $end
$var reg 1 %v NOT_dex_rg_instr_wget_BITS_14_TO_12_1_EQ_0b1_3___d84 $end
$var reg 1 %w NOT_dex_rg_verbosity_wget__1_SLE_1_2___d73 $end
$var reg 1 %x NOT_f_dmem_reqs_rv_port0__read__29_BIT_110_30__ETC___d644 $end
$var reg 1 %y NOT_f_dmem_reqs_rv_port0__read__29_BIT_110_30___d531 $end
$var reg 1 %z NOT_rg_cpu_mode_35_36_AND_rg_cpu_state_33___d637 $end
$var reg 1 %{ NOT_rg_verbosity_45_SLE_1_46_47_AND_dex_rg_sto_ETC___d508 $end
$var reg 1 %| NOT_rg_verbosity_45_SLE_1_46_47_AND_dex_rg_sto_ETC___d511 $end
$var reg 1 %} NOT_rg_verbosity_45_SLE_1_46_47_AND_dex_rg_sto_ETC___d514 $end
$var reg 1 %~ NOT_rg_verbosity_45_SLE_1_46_47_AND_dex_rg_sto_ETC___d517 $end
$var reg 1 &! NOT_rg_verbosity_45_SLE_1_46_47_AND_dex_rg_sto_ETC___d520 $end
$var reg 1 &" NOT_rg_verbosity_45_SLE_1_46___d447 $end
$var reg 1 &# NOT_rg_verbosity_45_SLE_2_70___d471 $end
$var reg 1 &$ RST_N $end
$var reg 128 &% SEXT_IF_dex_rg_fwd_data_dex_7_BIT_37_8_THEN_IF_ETC___d379 $end
$var reg 1 && WILL_FIRE_RL_cpu_stop $end
$var reg 1 &' WILL_FIRE_RL_dex_rl_exec_IMM $end
$var reg 1 &( WILL_FIRE_RL_dex_rl_exec_RR $end
$var reg 1 &) WILL_FIRE_RL_dex_rl_exec_auipc $end
$var reg 1 &* WILL_FIRE_RL_dex_rl_exec_branch $end
$var reg 1 &+ WILL_FIRE_RL_dex_rl_exec_jal $end
$var reg 1 &, WILL_FIRE_RL_dex_rl_exec_jalr $end
$var reg 1 &- WILL_FIRE_RL_dex_rl_exec_load $end
$var reg 1 &. WILL_FIRE_RL_dex_rl_exec_lui $end
$var reg 1 &/ WILL_FIRE_RL_dex_rl_exec_mul_32 $end
$var reg 1 &0 WILL_FIRE_RL_dex_rl_exec_store $end
$var reg 1 &1 WILL_FIRE_RL_dex_rl_mkCommitData $end
$var reg 1 &2 WILL_FIRE_RL_dex_rl_temp_c00 $end
$var reg 1 &3 WILL_FIRE_RL_rl_commit_1 $end
$var reg 1 &4 WILL_FIRE_RL_rl_commit_2 $end
$var reg 1 &5 WILL_FIRE_RL_rl_count_cycles $end
$var reg 1 &6 WILL_FIRE_RL_rl_fetch_getrsp $end
$var reg 1 &7 WILL_FIRE_RL_rl_fetch_mkreq $end
$var reg 1 &8 WILL_FIRE_RL_rl_flush $end
$var reg 1 &9 WILL_FIRE_RL_rl_read_dec_ex $end
$var reg 1 &: WILL_FIRE_RL_rl_update_dec_ex $end
$var reg 1 &; WILL_FIRE_dmem_ifc_rx_put $end
$var reg 1 &< WILL_FIRE_dmem_ifc_tx_get $end
$var reg 1 &= WILL_FIRE_imem_ifc_rx_put $end
$var reg 1 &> WILL_FIRE_imem_ifc_tx_get $end
$var reg 1 &? WILL_FIRE_req_read_memW $end
$var reg 1 &@ WILL_FIRE_reset $end
$var reg 1 &A WILL_FIRE_rsp_read_memW $end
$var reg 1 &B WILL_FIRE_run_continue $end
$var reg 1 &C WILL_FIRE_run_step $end
$var reg 1 &D WILL_FIRE_set_verbosity $end
$var reg 1 &E WILL_FIRE_stop $end
$var reg 1 &F WILL_FIRE_write_gpr $end
$var reg 1 &G WILL_FIRE_write_memW $end
$var reg 1 &H WILL_FIRE_write_pc $end
$var reg 118 &I _0_CONCAT_0_CONCAT_dex_val_ls_wget__82_BITS_74__ETC___d326 $end
$var reg 33 &J _0_CONCAT_DONTCARE___d215 $end
$var reg 59 &K _0_CONCAT_DONTCARE___d456 $end
$var reg 65 &L _0_CONCAT_DONTCARE___d525 $end
$var reg 119 &M _0_CONCAT_DONTCARE___d554 $end
$var reg 111 &N _0_CONCAT_DONTCARE___d623 $end
$var reg 128 &O _0_CONCAT_IF_IF_dex_rg_fwd_data_dex_7_BIT_37_8__ETC___d392 $end
$var reg 128 &P _0_CONCAT_IF_IF_dex_rg_fwd_data_dex_7_BIT_37_8__ETC___d399 $end
$var reg 128 &Q _0_CONCAT_IF_dex_rg_fwd_data_dex_7_BIT_37_8_THE_ETC___d406 $end
$var reg 110 &R _0_CONCAT_dex_val_ls_wget__82_BITS_74_TO_73_05__ETC___d323 $end
$var reg 71 &S _0_OR_dex_val_jmp_wget__86_BIT_70_35_36_CONCAT__ETC___d345 $end
$var reg 72 &T _1_CONCAT_1_CONCAT_IF_dex_rg_instr_wget_BITS_19_ETC___d235 $end
$var reg 72 &U _1_CONCAT_1_CONCAT_dex_rg_pc_wget__84_PLUS_SEXT_ETC___d247 $end
$var reg 118 &V _1_CONCAT_DONTCARE_CONCAT_IF_dex_val_wb_whas__6_ETC___d330 $end
$var reg 119 &W _1_CONCAT_IF_dex_rg_cd_wget__81_BITS_117_TO_116_ETC___d502 $end
$var reg 72 &X _1_CONCAT_IF_dex_rg_instr_wget_BITS_14_TO_12_1__ETC___d217 $end
$var reg 111 &Y _1_CONCAT_f_dex_cmt_rv_port0__read__27_BITS_115_ETC___d562 $end
$var reg 65 &Z _1_CONCAT_rg_pc_42_CONCAT_f_imem_rsps_rv_port1__ETC___d458 $end
$var reg 118 &[ _2_CONCAT_DONTCARE_CONCAT_0_OR_dex_val_jmp_wget_ETC___d346 $end
$var reg 111 &\ _32_CONCAT_req_read_memW_addr_CONCAT_DONTCARE_C_ETC___d643 $end
$var reg 111 &] _32_CONCAT_rg_pc_42_CONCAT_DONTCARE_CONCAT_4185_ETC___d444 $end
$var reg 111 &^ _36_CONCAT_write_memW_addr_CONCAT_write_memW_d__ETC___d646 $end
$var reg 118 &_ _3_CONCAT_DONTCARE_CONCAT_IF_dex_val_halt_whas__ETC___d349 $end
$var reg 118 &` _3_CONCAT_dex_rg_cd_wget__81_BITS_115_TO_0_98___d499 $end
$var reg 76 &a _4_CONCAT_DONTCARE_CONCAT_IF_dex_rg_fwd_data_de_ETC___d152 $end
$var reg 76 &b _5_CONCAT_IF_dex_rg_fwd_data_dex_7_BIT_37_8_THE_ETC___d168 $end
$var reg 32 &c _theResult____h17216 $end
$var reg 32 &d b__h12720 $end
$var reg 32 &e b__h4545 $end
$var reg 116 &f dex_rg_cd_wget__81_BITS_115_TO_0___d498 $end
$var reg 118 &g dex_rg_cd_wget__81_BITS_117_TO_0___d487 $end
$var reg 118 &h dex_rg_cd_wget__81_BITS_117_TO_116_83_CONCAT_D_ETC___d497 $end
$var reg 71 &i dex_rg_cd_wget__81_BIT_70_89_CONCAT_IF_dex_rg__ETC___d496 $end
$var reg 119 &j dex_rg_cd_wget____d481 $end
$var reg 38 &k dex_rg_fwd_data_commit_wget____d38 $end
$var reg 1 &l dex_rg_fwd_data_commit_whas__7_AND_dex_rg_fwd__ETC___d40 $end
$var reg 1 &m dex_rg_fwd_data_dex_7_BIT_37___d28 $end
$var reg 38 &n dex_rg_fwd_data_dex___d27 $end
$var reg 38 &o dex_rg_instr_wget_BITS_11_TO_7_5_CONCAT_1_CONC_ETC___d234 $end
$var reg 1 &p dex_rg_instr_wget_BITS_14_TO_12_1_EQ_0b0___d12 $end
$var reg 1 &q dex_rg_instr_wget_BITS_14_TO_12_1_EQ_0b100___d17 $end
$var reg 1 &r dex_rg_instr_wget_BITS_14_TO_12_1_EQ_0b101___d14 $end
$var reg 1 &s dex_rg_instr_wget_BITS_14_TO_12_1_EQ_0b10___d15 $end
$var reg 1 &t dex_rg_instr_wget_BITS_14_TO_12_1_EQ_0b110_9_O_ETC___d178 $end
$var reg 1 &u dex_rg_instr_wget_BITS_14_TO_12_1_EQ_0b110___d19 $end
$var reg 1 &v dex_rg_instr_wget_BITS_14_TO_12_1_EQ_0b111_8_O_ETC___d20 $end
$var reg 1 &w dex_rg_instr_wget_BITS_14_TO_12_1_EQ_0b111___d18 $end
$var reg 1 &x dex_rg_instr_wget_BITS_14_TO_12_1_EQ_0b11___d16 $end
$var reg 1 &y dex_rg_instr_wget_BITS_14_TO_12_1_EQ_0b1___d13 $end
$var reg 32 &z dex_rg_instr_wget_BITS_19_TO_12_39_CONCAT_0b0__ETC___d252 $end
$var reg 8 &{ dex_rg_instr_wget_BITS_19_TO_12___d239 $end
$var reg 1 &| dex_rg_instr_wget_BIT_31___d185 $end
$var reg 32 &} dex_rg_instr_wget____d2 $end
$var reg 3 &~ dex_rg_stop_reason_wget____d504 $end
$var reg 72 '! dex_val_jmp_wget____d286 $end
$var reg 76 '" dex_val_ls_wget____d282 $end
$var reg 119 '# dex_val_wb_whas__64_AND_dex_val_wb_wget__65_BI_ETC___d355 $end
$var reg 110 '$ f_dex_cmt_rv_port0__read__27_BITS_115_TO_6___d561 $end
$var reg 1 '% f_dex_cmt_rv_port0__read__27_BITS_117_TO_116_3_ETC___d548 $end
$var reg 1 '& f_dex_cmt_rv_port0__read__27_BITS_117_TO_116_3_ETC___d563 $end
$var reg 2 '' f_dex_cmt_rv_port0__read__27_BITS_117_TO_116___d534 $end
$var reg 5 '( f_dex_cmt_rv_port0__read__27_BITS_5_TO_1___d565 $end
$var reg 1 ') f_dex_cmt_rv_port0__read__27_BIT_118___d528 $end
$var reg 119 '* f_dex_cmt_rv_port0__read____d527 $end
$var reg 119 '+ f_dex_cmt_rv_port1__read____d475 $end
$var reg 1 ', f_dmem_reqs_rv_port0__read__29_BIT_110___d530 $end
$var reg 111 '- f_dmem_reqs_rv_port0__read____d529 $end
$var reg 111 '. f_dmem_reqs_rv_port1__read____d628 $end
$var reg 1 '/ f_dmem_rsps_rv_port1__read__14_BIT_58___d615 $end
$var reg 59 '0 f_dmem_rsps_rv_port1__read____d614 $end
$var reg 65 '1 f_if_dex_rv_port0__read____d465 $end
$var reg 65 '2 f_if_dex_rv_port1__read____d451 $end
$var reg 111 '3 f_imem_reqs_rv_port0__read____d438 $end
$var reg 111 '4 f_imem_reqs_rv_port1__read____d624 $end
$var reg 59 '5 f_imem_rsps_rv_port1__read____d449 $end
$var reg 32 '6 fd_data__h3651 $end
$var reg 32 '7 fd_data__h3716 $end
$var reg 5 '8 fd_rd__h3650 $end
$var reg 5 '9 fd_rd__h3715 $end
$var reg 3 ': funct3__h3294 $end
$var reg 7 '; funct7__h3295 $end
$var reg 12 '< imm_I__h3289 $end
$var reg 32 '= imm_U__h3292 $end
$var reg 7 '> opcode__h3285 $end
$var reg 5 '? rd__h3288 $end
$var reg 1 '@ rg_cpu_mode__h19293 $end
$var reg 1 'A rg_cpu_state___d433 $end
$var reg 1 'B rg_verbosity_45_SLE_1___d446 $end
$var reg 5 'C rs1__h3286 $end
$var reg 5 'D shift_amt__h3430 $end
$var reg 32 'E v1__h3428 $end
$var reg 32 'F v2__h5244 $end
$var reg 64 'G v__h11259 $end
$var reg 64 'H v__h12733 $end
$var reg 64 'I v__h13294 $end
$var reg 64 'J v__h13568 $end
$var reg 64 'K v__h13601 $end
$var reg 64 'L v__h14402 $end
$var reg 64 'M v__h14827 $end
$var reg 64 'N v__h15149 $end
$var reg 64 'O v__h15255 $end
$var reg 64 'P v__h15643 $end
$var reg 64 'Q v__h15862 $end
$var reg 64 'R v__h16322 $end
$var reg 64 'S v__h16597 $end
$var reg 64 'T v__h16746 $end
$var reg 64 'U v__h17350 $end
$var reg 32 'V v__h3614 $end
$var reg 32 'W v__h3645 $end
$var reg 32 'X v__h3712 $end
$var reg 64 'Y v__h4571 $end
$var reg 32 'Z v__h5444 $end
$var reg 32 '[ v__h5447 $end
$var reg 32 '\ v__h5459 $end
$var reg 64 '] v__h6534 $end
$var reg 64 '^ v__h7177 $end
$var reg 64 '_ v__h7606 $end
$var reg 64 '` v__h9174 $end
$var reg 64 'a v__h9474 $end
$var reg 64 'b v__h9619 $end
$var reg 64 'c v__h9768 $end
$var reg 73 'd write_memW_d_CONCAT_4185915408___d645 $end
$var reg 32 'e x__h13236 $end
$var reg 32 'f x__h17071 $end
$var reg 32 'g x__h3683 $end
$var reg 32 'h x__h5456 $end
$var reg 32 'i x__read__h2227 $end
$var reg 32 'j y__h3613 $end
$var reg 1 'k EN_dmem_ifc_rx_put $end
$var reg 1 'l EN_dmem_ifc_tx_get $end
$var reg 1 'm EN_imem_ifc_rx_put $end
$var reg 1 'n EN_imem_ifc_tx_get $end
$var reg 1 'o EN_req_read_memW $end
$var reg 1 'p EN_reset $end
$var reg 1 'q EN_rsp_read_memW $end
$var reg 1 'r EN_run_continue $end
$var reg 1 's EN_run_step $end
$var reg 1 't EN_set_verbosity $end
$var reg 1 'u EN_stop $end
$var reg 1 'v EN_write_gpr $end
$var reg 1 'w EN_write_memW $end
$var reg 1 'x EN_write_pc $end
$var reg 1 'y RDY_dmem_ifc_rx_put $end
$var reg 1 'z RDY_dmem_ifc_tx_get $end
$var reg 1 '{ RDY_imem_ifc_rx_put $end
$var reg 1 '| RDY_imem_ifc_tx_get $end
$var reg 1 '} RDY_read_cycle $end
$var reg 1 '~ RDY_read_gpr $end
$var reg 1 (! RDY_read_instret $end
$var reg 1 (" RDY_read_pc $end
$var reg 1 (# RDY_req_read_memW $end
$var reg 1 ($ RDY_reset $end
$var reg 1 (% RDY_rsp_read_memW $end
$var reg 1 (& RDY_run_continue $end
$var reg 1 (' RDY_run_step $end
$var reg 1 (( RDY_set_verbosity $end
$var reg 1 () RDY_stop $end
$var reg 1 (* RDY_stop_reason $end
$var reg 1 (+ RDY_write_gpr $end
$var reg 1 (, RDY_write_memW $end
$var reg 1 (- RDY_write_pc $end
$var reg 58 (. dmem_ifc_rx_put $end
$var reg 110 (/ dmem_ifc_tx_get $end
$var reg 58 (0 imem_ifc_rx_put $end
$var reg 110 (1 imem_ifc_tx_get $end
$var reg 32 (2 read_cycle $end
$var reg 32 (3 read_gpr $end
$var reg 5 (4 read_gpr_r $end
$var reg 32 (5 read_instret $end
$var reg 32 (6 read_pc $end
$var reg 32 (7 req_read_memW_addr $end
$var reg 1 (8 reset_dbg_mode $end
$var reg 32 (9 rsp_read_memW $end
$var reg 33 (: run_continue_mpc $end
$var reg 33 (; run_step_mpc $end
$var reg 32 (< set_verbosity_verbosity $end
$var reg 3 (= stop_reason $end
$var reg 32 (> write_gpr_d $end
$var reg 5 (? write_gpr_r $end
$var reg 32 (@ write_memW_addr $end
$var reg 32 (A write_memW_d $end
$var reg 32 (B write_pc_d $end
$var reg 1 (w _port0__read_RL_rl_commit_1$EN_f_dex_cmt_rv $end
$var reg 1 (x _port0__read_RL_rl_commit_1$EN_f_dmem_reqs_rv $end
$var reg 1 (y _port0__read_RL_rl_commit_2$EN_f_dex_cmt_rv $end
$var reg 1 (z _port0__write_RL_rl_commit_1$EN_f_dex_cmt_rv $end
$var reg 1 ({ _port0__write_RL_rl_commit_1$EN_f_dmem_reqs_rv $end
$var reg 1 (| _port0__write_RL_rl_commit_1$EN_rg_branch_taken $end
$var reg 1 (} _port0__write_RL_rl_commit_2$EN_f_dex_cmt_rv $end
$var reg 1 (~ _port1__read_RL_rl_commit_2$EN_f_dmem_rsps_rv $end
$var reg 1 )! _port1__write_RL_rl_commit_2$EN_f_dmem_rsps_rv $end
$var reg 1 )" _read_RL_rl_commit_1$EN_rg_cpu_state $end
$var reg 1 )# _read_RL_rl_commit_1$EN_rg_instret $end
$var reg 1 )$ _read_RL_rl_commit_1$EN_rg_verbosity $end
$var reg 1 )% _read_RL_rl_commit_2$EN_rg_cpu_state $end
$var reg 1 )& _read_RL_rl_commit_2$EN_rg_verbosity $end
$var reg 1 )' _sub_RL_rl_commit_1$EN_dex_regfile $end
$var reg 1 )( _upd_RL_rl_commit_1$EN_dex_regfile $end
$var reg 1 )) _upd_RL_rl_commit_2$EN_dex_regfile $end
$var reg 1 )* _wget_RL_rl_commit_1$EN_dex_rg_stop_reason $end
$var reg 1 )+ _write_RL_rl_commit_1$EN_rg_instret $end
$var reg 1 ), _wset_RL_rl_commit_1$EN_wr_flush $end
$var reg 119 )- dex_rg_cd $end
$var reg 64 ). dex_rg_cycle $end
$var reg 1 )/ dex_rg_dbg_mode $end
$var reg 38 )0 dex_rg_fwd_data_commit $end
$var reg 38 )1 dex_rg_fwd_data_dex $end
$var reg 32 )2 dex_rg_instr $end
$var reg 1 )3 dex_rg_instr_valid $end
$var reg 32 )4 dex_rg_pc $end
$var reg 3 )5 dex_rg_stop_reason $end
$var reg 32 )6 dex_rg_verbosity $end
$var reg 2 )7 dex_val_halt $end
$var reg 72 )8 dex_val_jmp $end
$var reg 76 )9 dex_val_ls $end
$var reg 33 ): dex_val_wb $end
$var reg 33 ); dex_val_wb_3 $end
$var reg 119 )< f_dex_cmt_rv $end
$scope module f_dex_cmt_rv $end
$var reg 119 )< Q_OUT_0 $end
$var reg 1 )= EN_0 $end
$var reg 119 )> D_IN_0 $end
$var reg 119 )? Q_OUT_1 $end
$var reg 1 )@ EN_1 $end
$var reg 119 )A D_IN_1 $end
$var reg 119 )B Q_OUT_2 $end
$var reg 1 )C EN_2 $end
$var reg 119 )D D_IN_2 $end
$var reg 119 )E Q_OUT_3 $end
$var reg 1 )F EN_3 $end
$var reg 119 )G D_IN_3 $end
$var reg 119 )H Q_OUT_4 $end
$var reg 1 )I EN_4 $end
$var reg 119 )J D_IN_4 $end
$upscope $end
$var reg 111 )K f_dmem_reqs_rv $end
$scope module f_dmem_reqs_rv $end
$var reg 111 )K Q_OUT_0 $end
$var reg 1 )L EN_0 $end
$var reg 111 )M D_IN_0 $end
$var reg 111 )N Q_OUT_1 $end
$var reg 1 )O EN_1 $end
$var reg 111 )P D_IN_1 $end
$var reg 111 )Q Q_OUT_2 $end
$var reg 1 )R EN_2 $end
$var reg 111 )S D_IN_2 $end
$var reg 111 )T Q_OUT_3 $end
$var reg 1 )U EN_3 $end
$var reg 111 )V D_IN_3 $end
$var reg 111 )W Q_OUT_4 $end
$var reg 1 )X EN_4 $end
$var reg 111 )Y D_IN_4 $end
$upscope $end
$var reg 59 )Z f_dmem_rsps_rv $end
$scope module f_dmem_rsps_rv $end
$var reg 59 )Z Q_OUT_0 $end
$var reg 1 )[ EN_0 $end
$var reg 59 )\ D_IN_0 $end
$var reg 59 )] Q_OUT_1 $end
$var reg 1 )^ EN_1 $end
$var reg 59 )_ D_IN_1 $end
$var reg 59 )` Q_OUT_2 $end
$var reg 1 )a EN_2 $end
$var reg 59 )b D_IN_2 $end
$var reg 59 )c Q_OUT_3 $end
$var reg 1 )d EN_3 $end
$var reg 59 )e D_IN_3 $end
$var reg 59 )f Q_OUT_4 $end
$var reg 1 )g EN_4 $end
$var reg 59 )h D_IN_4 $end
$upscope $end
$var reg 65 )i f_if_dex_rv $end
$scope module f_if_dex_rv $end
$var reg 65 )i Q_OUT_0 $end
$var reg 1 )j EN_0 $end
$var reg 65 )k D_IN_0 $end
$var reg 65 )l Q_OUT_1 $end
$var reg 1 )m EN_1 $end
$var reg 65 )n D_IN_1 $end
$var reg 65 )o Q_OUT_2 $end
$var reg 1 )p EN_2 $end
$var reg 65 )q D_IN_2 $end
$var reg 65 )r Q_OUT_3 $end
$var reg 1 )s EN_3 $end
$var reg 65 )t D_IN_3 $end
$var reg 65 )u Q_OUT_4 $end
$var reg 1 )v EN_4 $end
$var reg 65 )w D_IN_4 $end
$upscope $end
$var reg 111 )x f_imem_reqs_rv $end
$scope module f_imem_reqs_rv $end
$var reg 111 )x Q_OUT_0 $end
$var reg 1 )y EN_0 $end
$var reg 111 )z D_IN_0 $end
$var reg 111 ){ Q_OUT_1 $end
$var reg 1 )| EN_1 $end
$var reg 111 )} D_IN_1 $end
$var reg 111 )~ Q_OUT_2 $end
$var reg 1 *! EN_2 $end
$var reg 111 *" D_IN_2 $end
$var reg 111 *# Q_OUT_3 $end
$var reg 1 *$ EN_3 $end
$var reg 111 *% D_IN_3 $end
$var reg 111 *& Q_OUT_4 $end
$var reg 1 *' EN_4 $end
$var reg 111 *( D_IN_4 $end
$upscope $end
$var reg 59 *) f_imem_rsps_rv $end
$scope module f_imem_rsps_rv $end
$var reg 59 *) Q_OUT_0 $end
$var reg 1 ** EN_0 $end
$var reg 59 *+ D_IN_0 $end
$var reg 59 *, Q_OUT_1 $end
$var reg 1 *- EN_1 $end
$var reg 59 *. D_IN_1 $end
$var reg 59 */ Q_OUT_2 $end
$var reg 1 *0 EN_2 $end
$var reg 59 *1 D_IN_2 $end
$var reg 59 *2 Q_OUT_3 $end
$var reg 1 *3 EN_3 $end
$var reg 59 *4 D_IN_3 $end
$var reg 59 *5 Q_OUT_4 $end
$var reg 1 *6 EN_4 $end
$var reg 59 *7 D_IN_4 $end
$upscope $end
$var reg 33 *8 rg_branch_taken $end
$scope module rg_branch_taken $end
$var reg 33 *8 Q_OUT_0 $end
$var reg 1 *9 EN_0 $end
$var reg 33 *: D_IN_0 $end
$var reg 33 *; Q_OUT_1 $end
$var reg 1 *< EN_1 $end
$var reg 33 *= D_IN_1 $end
$var reg 33 *> Q_OUT_2 $end
$var reg 1 *? EN_2 $end
$var reg 33 *@ D_IN_2 $end
$var reg 33 *A Q_OUT_3 $end
$var reg 1 *B EN_3 $end
$var reg 33 *C D_IN_3 $end
$var reg 33 *D Q_OUT_4 $end
$var reg 1 *E EN_4 $end
$var reg 33 *F D_IN_4 $end
$upscope $end
$var reg 1 *G rg_cpu_mode $end
$var reg 1 *H rg_cpu_state $end
$var reg 32 *I rg_cycle $end
$scope module rg_cycle $end
$var reg 32 *I Q_OUT_0 $end
$var reg 1 *J EN_0 $end
$var reg 32 *K D_IN_0 $end
$var reg 32 *L Q_OUT_1 $end
$var reg 1 *M EN_1 $end
$var reg 32 *N D_IN_1 $end
$var reg 32 *O Q_OUT_2 $end
$var reg 1 *P EN_2 $end
$var reg 32 *Q D_IN_2 $end
$var reg 32 *R Q_OUT_3 $end
$var reg 1 *S EN_3 $end
$var reg 32 *T D_IN_3 $end
$var reg 32 *U Q_OUT_4 $end
$var reg 1 *V EN_4 $end
$var reg 32 *W D_IN_4 $end
$upscope $end
$var reg 32 *X rg_instret $end
$var reg 32 *Y rg_pc $end
$var reg 3 *Z rg_stop_reason $end
$var reg 1 *[ rg_stop_requested $end
$var reg 32 *\ rg_verbosity $end
$var reg 1 *] wr_flush $end
$upscope $end
$scope module mem $end
$var reg 1 ! CLK $end
$var reg 1 *^ CAN_FIRE_RL_rl_handle_reqs $end
$var reg 1 *_ CAN_FIRE_RL_rl_handle_reqs_1 $end
$var reg 1 *` CAN_FIRE_bus_ifc_0_rx_put $end
$var reg 1 *a CAN_FIRE_bus_ifc_0_tx_get $end
$var reg 1 *b CAN_FIRE_bus_ifc_1_rx_put $end
$var reg 1 *c CAN_FIRE_bus_ifc_1_tx_get $end
$var reg 1 *d CAN_FIRE_debug_load $end
$var reg 1 *e CAN_FIRE_debug_store $end
$var reg 1 *f CAN_FIRE_initialize $end
$var reg 1 *g RST_N $end
$var reg 1 *h WILL_FIRE_RL_rl_handle_reqs $end
$var reg 1 *i WILL_FIRE_RL_rl_handle_reqs_1 $end
$var reg 1 *j WILL_FIRE_bus_ifc_0_rx_put $end
$var reg 1 *k WILL_FIRE_bus_ifc_0_tx_get $end
$var reg 1 *l WILL_FIRE_bus_ifc_1_rx_put $end
$var reg 1 *m WILL_FIRE_bus_ifc_1_tx_get $end
$var reg 1 *n WILL_FIRE_debug_store $end
$var reg 1 *o WILL_FIRE_initialize $end
$var reg 59 *p _0_CONCAT_DONTCARE___d136 $end
$var reg 111 *q _0_CONCAT_DONTCARE___d9 $end
$var reg 111 *r _1_CONCAT_bus_ifc_0_rx_put___d138 $end
$var reg 111 *s _1_CONCAT_bus_ifc_1_rx_put___d142 $end
$var reg 64 *t _read__h1270 $end
$var reg 1 *u rg_initialized___d7 $end
$var reg 32 *v v__h1709 $end
$var reg 32 *w v__h1841 $end
$var reg 64 *x v__h1913 $end
$var reg 32 *y v__h2839 $end
$var reg 32 *z v__h2971 $end
$var reg 64 *{ v__h3043 $end
$var reg 64 *| v__h4685 $end
$var reg 111 *} vf_reqs_0_rv_port0__read____d139 $end
$var reg 111 *~ vf_reqs_0_rv_port1__read____d1 $end
$var reg 111 +! vf_reqs_1_rv_port0__read____d143 $end
$var reg 111 +" vf_reqs_1_rv_port1__read____d71 $end
$var reg 59 +# vf_rsps_0_rv_port1__read____d137 $end
$var reg 59 +$ vf_rsps_1_rv_port1__read____d141 $end
$var reg 32 +% y__h2735 $end
$var reg 32 +& y__h2774 $end
$var reg 32 +' y_avValue_data__h2026 $end
$var reg 32 +( y_avValue_data__h3150 $end
$var reg 1 +) EN_bus_ifc_0_rx_put $end
$var reg 1 +* EN_bus_ifc_0_tx_get $end
$var reg 1 ++ EN_bus_ifc_1_rx_put $end
$var reg 1 +, EN_bus_ifc_1_tx_get $end
$var reg 1 +- EN_debug_store $end
$var reg 1 +. EN_initialize $end
$var reg 1 +/ RDY_bus_ifc_0_rx_put $end
$var reg 1 +0 RDY_bus_ifc_0_tx_get $end
$var reg 1 +1 RDY_bus_ifc_1_rx_put $end
$var reg 1 +2 RDY_bus_ifc_1_tx_get $end
$var reg 1 +3 RDY_debug_load $end
$var reg 1 +4 RDY_debug_store $end
$var reg 1 +5 RDY_initialize $end
$var reg 110 +6 bus_ifc_0_rx_put $end
$var reg 58 +7 bus_ifc_0_tx_get $end
$var reg 110 +8 bus_ifc_1_rx_put $end
$var reg 58 +9 bus_ifc_1_tx_get $end
$var reg 32 +: debug_load $end
$var reg 32 +; debug_load_addr $end
$var reg 2 +< debug_load_sz $end
$var reg 32 += debug_store_a $end
$var reg 32 +> debug_store_d $end
$var reg 2 +? debug_store_sz $end
$var reg 32 +@ initialize_base_addr $end
$var reg 1 +A initialize_init_from_file $end
$var reg 32 +B initialize_n_bytes $end
$var reg 32 +L rg_base $end
$var reg 1 +M rg_initialized $end
$var reg 32 +N rg_limit $end
$var reg 64 +O rg_p $end
$var reg 32 +P rg_size $end
$var reg 111 +Q vf_reqs_0_rv $end
$scope module vf_reqs_0_rv $end
$var reg 111 +Q Q_OUT_0 $end
$var reg 1 +R EN_0 $end
$var reg 111 +S D_IN_0 $end
$var reg 111 +T Q_OUT_1 $end
$var reg 1 +U EN_1 $end
$var reg 111 +V D_IN_1 $end
$var reg 111 +W Q_OUT_2 $end
$var reg 1 +X EN_2 $end
$var reg 111 +Y D_IN_2 $end
$var reg 111 +Z Q_OUT_3 $end
$var reg 1 +[ EN_3 $end
$var reg 111 +\ D_IN_3 $end
$var reg 111 +] Q_OUT_4 $end
$var reg 1 +^ EN_4 $end
$var reg 111 +_ D_IN_4 $end
$upscope $end
$var reg 111 +` vf_reqs_1_rv $end
$scope module vf_reqs_1_rv $end
$var reg 111 +` Q_OUT_0 $end
$var reg 1 +a EN_0 $end
$var reg 111 +b D_IN_0 $end
$var reg 111 +c Q_OUT_1 $end
$var reg 1 +d EN_1 $end
$var reg 111 +e D_IN_1 $end
$var reg 111 +f Q_OUT_2 $end
$var reg 1 +g EN_2 $end
$var reg 111 +h D_IN_2 $end
$var reg 111 +i Q_OUT_3 $end
$var reg 1 +j EN_3 $end
$var reg 111 +k D_IN_3 $end
$var reg 111 +l Q_OUT_4 $end
$var reg 1 +m EN_4 $end
$var reg 111 +n D_IN_4 $end
$upscope $end
$var reg 59 +o vf_rsps_0_rv $end
$scope module vf_rsps_0_rv $end
$var reg 59 +o Q_OUT_0 $end
$var reg 1 +p EN_0 $end
$var reg 59 +q D_IN_0 $end
$var reg 59 +r Q_OUT_1 $end
$var reg 1 +s EN_1 $end
$var reg 59 +t D_IN_1 $end
$var reg 59 +u Q_OUT_2 $end
$var reg 1 +v EN_2 $end
$var reg 59 +w D_IN_2 $end
$var reg 59 +x Q_OUT_3 $end
$var reg 1 +y EN_3 $end
$var reg 59 +z D_IN_3 $end
$var reg 59 +{ Q_OUT_4 $end
$var reg 1 +| EN_4 $end
$var reg 59 +} D_IN_4 $end
$upscope $end
$var reg 59 +~ vf_rsps_1_rv $end
$scope module vf_rsps_1_rv $end
$var reg 59 +~ Q_OUT_0 $end
$var reg 1 ,! EN_0 $end
$var reg 59 ," D_IN_0 $end
$var reg 59 ,# Q_OUT_1 $end
$var reg 1 ,$ EN_1 $end
$var reg 59 ,% D_IN_1 $end
$var reg 59 ,& Q_OUT_2 $end
$var reg 1 ,' EN_2 $end
$var reg 59 ,( D_IN_2 $end
$var reg 59 ,) Q_OUT_3 $end
$var reg 1 ,* EN_3 $end
$var reg 59 ,+ D_IN_3 $end
$var reg 59 ,, Q_OUT_4 $end
$var reg 1 ,- EN_4 $end
$var reg 59 ,. D_IN_4 $end
$upscope $end
$upscope $end
$upscope $end
$upscope $end
$enddefinitions $end
1!
0"
0#
0$
0%
0&
0'
0(
0)
0*
0+
0,
0-
0.
0/
00
01
02
03
04
05
06
07
08
09
0:
0;
0<
0=
0>
0?
0@
1A
0B
0C
0D
0E
0F
0G
0H
0I
0J
0K
0L
0M
0N
0O
1P
0Q
0R
0S
0T
1U
1V
1W
0X
1Y
1Z
1[
1\
1]
1^
1_
1`
1a
1b
1c
1d
1e
1f
1g
1h
1i
1j
1k
1l
1m
1n
1o
1p
1q
1r
1s
1t
1u
1v
1w
1x
1y
1z
1{
1|
1}
1~
1"!
1""
1"#
0"$
0"%
0"&
0"'
0"(
0")
0"*
0"+
0",
0"-
0".
0"/
0"0
0"1
0"2
0"3
0"4
0"5
0"6
0"7
0"8
0"9
0":
0";
0"<
0"=
0">
0"?
0"@
0"A
0"B
0"C
0"D
0"E
0"F
b0 "G
0"H
b10101010101010101010101010101010101010101010101010101010101010101010101010101010101010101010101010101010101010101010101010101010101010101010101010101010101010101010101010101010101010101010101010101010101010101010101010101010101010101010101010101010101010101010101010101010101010101010101010101010101010101010101010101010 "I
0"J
0"K
0"L
0"M
0"N
0"O
0"P
0"Q
0"R
0"S
0"T
0"U
0"V
0"W
0"X
0"Y
0"Z
0"[
0"\
0"]
0"^
0"_
0"`
0"a
0"b
0"c
0"d
0"e
0"f
0"g
0"h
1"i
0"j
0"k
0"l
0"m
0"n
0"o
0"p
0"q
0"r
0"s
0"t
0"u
0"v
0"w
1"x
0"y
0"z
0"{
0"|
1"}
1"~
1#!
0#"
1##
1#$
1#%
1#&
1#'
1#(
1#)
1#*
1#+
1#,
1#-
1#.
1#/
1#0
1#1
1#2
1#3
1#4
1#5
1#6
1#7
1#8
1#9
1#:
1#;
1#<
1#=
1#>
1#?
1#@
1#A
1#B
1#C
1#D
1#E
1#F
1#G
1#H
1#I
1#J
1#K
b10101010101010101010101010101010 #L
b0 #M
b10101010101010101010101010101010 #N
b10101010101010101010101010101010101010101010101010101010101010101010101010101010101010101010101010101010101010 #O
b101010101010101010101010101010101010101010101010101010101010101000000000011111001100000000000000000000000 #P
b0 #Q
0#R
b0 #S
0#T
b0 #U
0#V
b0 #W
0#X
b0 #Y
0#Z
b0 #[
0#\
0#]
0#^
0#_
0#`
0#a
0#b
b0 #c
b0 #d
0#e
b0 #f
0#g
b0 #h
0#i
0#j
b0 #k
0#l
0#m
b0 #n
0#o
0#p
b0 #q
0#r
0#s
b0 #t
0#u
0#v
b0 #w
0#x
0#y
b0 #z
b0 #{
b0 #|
0#}
b0 #~
0$!
0$"
b0 $#
0$$
0$%
b0 $&
0$'
0$(
b0 $)
0$*
0$+
b0 $,
0$-
0$.
b0 $/
0$0
0$1
b0 $2
b0 $3
b0 $4
0$5
b0 $6
0$7
0$8
b0 $9
0$:
0$;
b0 $<
0$=
0$>
b0 $?
0$@
0$A
b0 $B
0$C
0$D
b0 $E
0$F
0$G
b0 $H
b0 $I
b0 $J
0$K
b0 $L
0$M
b0 $N
0$O
b0 $P
0$Q
b0 $R
0$S
b0 $T
0$U
0$V
0$W
0$X
0$Y
0$Z
0$[
b0 $\
b0 $]
0$^
b0 $_
b0 $`
0$a
0$b
0$c
0$d
0$e
b10 $f
b0 $g
b10101010101010101010101010101010 $h
b0 $i
b0 $j
b0 $k
0$l
b10101010101010101010101010101010 $m
b10101010101010101010101010101010101010101010101010101010101010101010101010101010101010101010101010101010101010101010101010101010101010101010101010101010101010101010101010101010101010101010101010101010101010101010101010101010101010101010101010101010101010101010101010101010101010101010101010101010101010101010101010101010 $n
b1010101010101010101010101010101010101010101010101010101010101010 $o
b1010101010101010101010101010101010101010101010101010101010101010 $p
b1010101010101010101010101010101010101010101010101010101010101010 $q
b1010101010101010101010101010101010101010101010101010101010101010 $r
b1010101010101010101010101010101010101010101010101010101010101010 $s
b1010101010101010101010101010101010101010101010101010101010101010 $t
b1010101010101010101010101010101010101010101010101010101010101010 $u
b1010101010101010101010101010101010101010101010101010101010101010 $v
b1010101010101010101010101010101010101010101010101010101010101010 $w
b1010101010101010101010101010101010101010101010101010101010101010 $x
b1010101010101010101010101010101010101010101010101010101010101010 $y
b0 $z
b101010 ${
b0 $|
x%.
b10101010101010101010101010101010 %/
b10101010101010101010101010101010101010101010101010101010101010101010101010101010101010101010101010101010101010101010101010101010101010101010101010101010101010101010101010101010101010101010101010101010101010101010101010101010101010101010101010101010101010101010101010101010101010101010101010101010101010101010101010101010 %0
b101010 %1
0%2
0%3
0%4
x%5
x%6
1%7
0%8
1%9
b0 %:
0%;
1%<
0%=
0%>
0%?
0%@
0%A
0%B
0%C
0%D
0%E
0%F
0%G
0%H
0%I
0%J
0%K
1%L
0%M
1%N
0%O
0%P
0%Q
0%R
0%S
0%T
1%U
0%V
0%W
0%X
0%Y
0%Z
0%[
0%\
0%]
0%^
1%_
0%`
0%a
0%b
0%c
0%d
b1010101010101010101010101010101000000000011111001100000000000000000000000 %e
b101010101010101010101010101010101010101010101010101010101010101010101010 %f
b1010101010101010101010101010101010101010101010101010101010101010101010101010101010101010101010101010101010101010101010 %g
b1010101010101010101010101010101010101010101010101010101010101010101010101010101010101010101010101010101010101010101010 %h
b1010101010101010101010101010101010101010101010101010101010101010101010101010101010101010101010101010101010101010101010 %i
0%j
0%k
b0 %l
b1010101010101010101010101010101010101010101010101010101010101010101010101010101010101010101010101010101010 %m
b1010101010101010101010101010101010101010101010101010101010101010101010101010101010101010101010101010101010101010101010 %n
b1010101010101010101010101010101010101010101010101010101010101010101010101010101010101010101010101010101010101010101010 %o
0%p
0%q
0%r
0%s
0%t
0%u
0%v
0%w
0%x
1%y
0%z
0%{
0%|
0%}
0%~
0&!
0&"
0&#
0&$
b10101010101010101010101010101010101010101010101010101010101010101010101010101010101010101010101010101010101010101010101010101010 &%
0&&
0&'
0&(
0&)
0&*
0&+
0&,
0&-
0&.
0&/
0&0
0&1
0&2
0&3
0&4
1&5
0&6
1&7
0&8
0&9
0&:
0&;
0&<
0&=
1&>
0&?
0&@
0&A
0&B
0&C
0&D
0&E
0&F
0&G
0&H
b1010101010101010101010101010101010101010101010101010101010101010101010101010101010101010101010101010101010101010101010 &I
b0 &J
b0 &K
b1010101010101010101010101010101010101010101010101010101010101010 &L
b1010101010101010101010101010101010101010101010101010101010101010101010101010101010101010101010101010101010101010101010 &M
b10101010101010101010101010101010101010101010101010101010101010101010101010101010101010101010101010101010101010 &N
b10101010101010101010101010101010101010101010101010101010101010101010101010101010101010101010101010101010101010101010101010101010 &O
b10101010101010101010101010101010101010101010101010101010101010101010101010101010101010101010101010101010101010101010101010101010 &P
b10101010101010101010101010101010101010101010101010101010101010101010101010101010101010101010101010101010101010101010101010101010 &Q
b10101010101010101010101010101010101010101010101010101010101010101010101010101010101010101010101010101010101010 &R
b1010101010101010101010101010101010101010101010101010101010101010101010 &S
b101010101010101010101010101010101010101010101010101010101010101010101010 &T
b101010101010101010101010101010101010101010101010101010101010101010101010 &U
b1010101010101010101010101010101010101010101010101010101010101010101010101010101010101010101010101010101010101010101010 &V
b1010101010101010101010101010101010101010101010101010101010101010101010101010101010101010101010101010101010101010101010 &W
b101010101010101010101010101010101010101010101010101010101010101010101010 &X
b10101010101010101010101010101010101010101010101010101010101010101010101010101010101010101010101010101010101010 &Y
b1010101010101010101010101010101010101010101010101010101010101010 &Z
b1010101010101010101010101010101010101010101010101010101010101010101010101010101010101010101010101010101010101010101010 &[
b10101010101010101010101010101010101010101010101010101010101010101010101010101010101010101010101010101010101010 &\
b100000101010101010101010101010101010101010101010101010101010101010101000000000011111001100000000000000000000000 &]
b10101010101010101010101010101010101010101010101010101010101010101010101010101010101010101010101010101010101010 &^
b1010101010101010101010101010101010101010101010101010101010101010101010101010101010101010101010101010101010101010101010 &_
b1010101010101010101010101010101010101010101010101010101010101010101010101010101010101010101010101010101010101010101010 &`
b1010101010101010101010101010101010101010101010101010101010101010101010101010 &a
b1010101010101010101010101010101010101010101010101010101010101010101010101010 &b
b0 &c
b10101010101010101010101010101010 &d
b0 &e
b10101010101010101010101010101010101010101010101010101010101010101010101010101010101010101010101010101010101010101010 &f
b1010101010101010101010101010101010101010101010101010101010101010101010101010101010101010101010101010101010101010101010 &g
b1010101010101010101010101010101010101010101010101010101010101010101010101010101010101010101010101010101010101010101010 &h
b1010101010101010101010101010101010101010101010101010101010101010101010 &i
b1010101010101010101010101010101010101010101010101010101010101010101010101010101010101010101010101010101010101010101010 &j
b0 &k
0&l
0&m
b0 &n
b0 &o
0&p
0&q
0&r
0&s
0&t
0&u
0&v
0&w
0&x
0&y
b0 &z
b0 &{
0&|
b10101010101010101010101010101010 &}
b0 &~
b101010101010101010101010101010101010101010101010101010101010101010101010 '!
b1010101010101010101010101010101010101010101010101010101010101010101010101010 '"
b1010101010101010101010101010101010101010101010101010101010101010101010101010101010101010101010101010101010101010101010 '#
b10101010101010101010101010101010101010101010101010101010101010101010101010101010101010101010101010101010101010 '$
0'%
0'&
b0 ''
b0 '(
0')
b1010101010101010101010101010101010101010101010101010101010101010101010101010101010101010101010101010101010101010101010 '*
b1010101010101010101010101010101010101010101010101010101010101010101010101010101010101010101010101010101010101010101010 '+
0',
b10101010101010101010101010101010101010101010101010101010101010101010101010101010101010101010101010101010101010 '-
b10101010101010101010101010101010101010101010101010101010101010101010101010101010101010101010101010101010101010 '.
0'/
b1010101010101010101010101010101010101010101010101010101010 '0
b1010101010101010101010101010101010101010101010101010101010101010 '1
b1010101010101010101010101010101010101010101010101010101010101010 '2
b10101010101010101010101010101010101010101010101010101010101010101010101010101010101010101010101010101010101010 '3
b100000101010101010101010101010101010101010101010101010101010101010101000000000011111001100000000000000000000000 '4
b1010101010101010101010101010101010101010101010101010101010 '5
b0 '6
b0 '7
b0 '8
b0 '9
b10 ':
b0 ';
b0 '<
b0 '=
b101010 '>
b0 '?
0'@
0'A
1'B
b0 'C
b0 'D
b0 'E
b0 'F
b1010101010101010101010101010101010101010101010101010101010101010 'G
b1010101010101010101010101010101010101010101010101010101010101010 'H
b1010101010101010101010101010101010101010101010101010101010101010 'I
b1010101010101010101010101010101010101010101010101010101010101010 'J
b1010101010101010101010101010101010101010101010101010101010101010 'K
b1010101010101010101010101010101010101010101010101010101010101010 'L
b1010101010101010101010101010101010101010101010101010101010101010 'M
b1010101010101010101010101010101010101010101010101010101010101010 'N
b1010101010101010101010101010101010101010101010101010101010101010 'O
b1010101010101010101010101010101010101010101010101010101010101010 'P
b1010101010101010101010101010101010101010101010101010101010101010 'Q
b1010101010101010101010101010101010101010101010101010101010101010 'R
b1010101010101010101010101010101010101010101010101010101010101010 'S
b1010101010101010101010101010101010101010101010101010101010101010 'T
b1010101010101010101010101010101010101010101010101010101010101010 'U
b0 'V
b0 'W
b0 'X
b1010101010101010101010101010101010101010101010101010101010101010 'Y
b0 'Z
b0 '[
b0 '\
b1010101010101010101010101010101010101010101010101010101010101010 ']
b1010101010101010101010101010101010101010101010101010101010101010 '^
b1010101010101010101010101010101010101010101010101010101010101010 '_
b1010101010101010101010101010101010101010101010101010101010101010 '`
b1010101010101010101010101010101010101010101010101010101010101010 'a
b1010101010101010101010101010101010101010101010101010101010101010 'b
b1010101010101010101010101010101010101010101010101010101010101010 'c
b101010101010101010101010101010101010101010101010101010101010101010101010 'd
b10101010101010101010101010101010 'e
b10101010101010101010101010101010 'f
b0 'g
b0 'h
b0 'i
b0 'j
0'k
0'l
0'm
1'n
0'o
0'p
0'q
0'r
0's
0't
0'u
0'v
0'w
0'x
0'y
0'z
0'{
1'|
0'}
0'~
0(!
0("
0(#
0($
0(%
0(&
0('
1((
0()
0(*
0(+
0(,
0(-
b0 (.
b0 (/
b0 (0
b101010101010101010101010101010101010101010101010101010101010101000000000011111001100000000000000000000000 (1
b0 (2
b0 (3
b0 (4
b10101010101010101010101010101010 (5
b0 (6
b0 (7
0(8
b0 (9
b0 (:
b0 (;
b0 (<
b10 (=
b0 (>
b0 (?
b0 (@
b0 (A
b0 (B
x(w
x(x
x(y
x(z
x({
x(|
x(}
x(~
x)!
x)"
x)#
x)$
x)%
x)&
x)'
x)(
x))
x)*
x)+
x),
bx )-
b1010101010101010101010101010101010101010101010101010101010101010 ).
0)/
bx )0
b101010101010101010101010101010101010 )1
bx )2
x)3
bx )4
bx )5
bx )6
bx )7
bx )8
bx )9
bx ):
bx );
b1010101010101010101010101010101010101010101010101010101010101010101010101010101010101010101010101010101010101010101010 )<
0)=
b1010101010101010101010101010101010101010101010101010101010101010101010101010101010101010101010101010101010101010101010 )>
b1010101010101010101010101010101010101010101010101010101010101010101010101010101010101010101010101010101010101010101010 )?
0)@
b1010101010101010101010101010101010101010101010101010101010101010101010101010101010101010101010101010101010101010101010 )A
b1010101010101010101010101010101010101010101010101010101010101010101010101010101010101010101010101010101010101010101010 )B
0)C
b1010101010101010101010101010101010101010101010101010101010101010101010101010101010101010101010101010101010101010101010 )D
b1010101010101010101010101010101010101010101010101010101010101010101010101010101010101010101010101010101010101010101010 )E
0)F
b1010101010101010101010101010101010101010101010101010101010101010101010101010101010101010101010101010101010101010101010 )G
b1010101010101010101010101010101010101010101010101010101010101010101010101010101010101010101010101010101010101010101010 )H
0)I
b1010101010101010101010101010101010101010101010101010101010101010101010101010101010101010101010101010101010101010101010 )J
b10101010101010101010101010101010101010101010101010101010101010101010101010101010101010101010101010101010101010 )K
0)L
b10101010101010101010101010101010101010101010101010101010101010101010101010101010101010101010101010101010101010 )M
b10101010101010101010101010101010101010101010101010101010101010101010101010101010101010101010101010101010101010 )N
0)O
b10101010101010101010101010101010101010101010101010101010101010101010101010101010101010101010101010101010101010 )P
b10101010101010101010101010101010101010101010101010101010101010101010101010101010101010101010101010101010101010 )Q
0)R
b10101010101010101010101010101010101010101010101010101010101010101010101010101010101010101010101010101010101010 )S
b10101010101010101010101010101010101010101010101010101010101010101010101010101010101010101010101010101010101010 )T
0)U
b10101010101010101010101010101010101010101010101010101010101010101010101010101010101010101010101010101010101010 )V
b10101010101010101010101010101010101010101010101010101010101010101010101010101010101010101010101010101010101010 )W
0)X
b10101010101010101010101010101010101010101010101010101010101010101010101010101010101010101010101010101010101010 )Y
b1010101010101010101010101010101010101010101010101010101010 )Z
0)[
b1010101010101010101010101010101010101010101010101010101010 )\
b1010101010101010101010101010101010101010101010101010101010 )]
0)^
b1010101010101010101010101010101010101010101010101010101010 )_
b1010101010101010101010101010101010101010101010101010101010 )`
0)a
b1010101010101010101010101010101010101010101010101010101010 )b
b1010101010101010101010101010101010101010101010101010101010 )c
0)d
b1010101010101010101010101010101010101010101010101010101010 )e
b1010101010101010101010101010101010101010101010101010101010 )f
0)g
b1010101010101010101010101010101010101010101010101010101010 )h
b1010101010101010101010101010101010101010101010101010101010101010 )i
0)j
b1010101010101010101010101010101010101010101010101010101010101010 )k
b1010101010101010101010101010101010101010101010101010101010101010 )l
0)m
b1010101010101010101010101010101010101010101010101010101010101010 )n
b1010101010101010101010101010101010101010101010101010101010101010 )o
0)p
b1010101010101010101010101010101010101010101010101010101010101010 )q
b1010101010101010101010101010101010101010101010101010101010101010 )r
0)s
b1010101010101010101010101010101010101010101010101010101010101010 )t
b1010101010101010101010101010101010101010101010101010101010101010 )u
0)v
b1010101010101010101010101010101010101010101010101010101010101010 )w
b10101010101010101010101010101010101010101010101010101010101010101010101010101010101010101010101010101010101010 )x
1)y
b100000101010101010101010101010101010101010101010101010101010101010101000000000011111001100000000000000000000000 )z
b100000101010101010101010101010101010101010101010101010101010101010101000000000011111001100000000000000000000000 ){
1)|
b10101010101010101010101010101010101010101010101010101010101010101010101010101010101010101010101010101010101010 )}
b10101010101010101010101010101010101010101010101010101010101010101010101010101010101010101010101010101010101010 )~
0*!
b10101010101010101010101010101010101010101010101010101010101010101010101010101010101010101010101010101010101010 *"
b10101010101010101010101010101010101010101010101010101010101010101010101010101010101010101010101010101010101010 *#
0*$
b10101010101010101010101010101010101010101010101010101010101010101010101010101010101010101010101010101010101010 *%
b10101010101010101010101010101010101010101010101010101010101010101010101010101010101010101010101010101010101010 *&
0*'
b10101010101010101010101010101010101010101010101010101010101010101010101010101010101010101010101010101010101010 *(
b1010101010101010101010101010101010101010101010101010101010 *)
0**
b1010101010101010101010101010101010101010101010101010101010 *+
b1010101010101010101010101010101010101010101010101010101010 *,
0*-
b1010101010101010101010101010101010101010101010101010101010 *.
b1010101010101010101010101010101010101010101010101010101010 */
0*0
b1010101010101010101010101010101010101010101010101010101010 *1
b1010101010101010101010101010101010101010101010101010101010 *2
0*3
b1010101010101010101010101010101010101010101010101010101010 *4
b1010101010101010101010101010101010101010101010101010101010 *5
0*6
b1010101010101010101010101010101010101010101010101010101010 *7
b10101010101010101010101010101010 *8
0*9
b10101010101010101010101010101010 *:
b10101010101010101010101010101010 *;
0*<
b10101010101010101010101010101010 *=
b10101010101010101010101010101010 *>
0*?
b10101010101010101010101010101010 *@
b10101010101010101010101010101010 *A
0*B
b10101010101010101010101010101010 *C
b10101010101010101010101010101010 *D
0*E
b10101010101010101010101010101010 *F
0*G
1*H
b10101010101010101010101010101010 *I
1*J
b10101010101010101010101010101011 *K
b10101010101010101010101010101011 *L
0*M
b10101010101010101010101010101010 *N
b10101010101010101010101010101011 *O
0*P
b10101010101010101010101010101010 *Q
b10101010101010101010101010101011 *R
0*S
b10101010101010101010101010101010 *T
b10101010101010101010101010101011 *U
0*V
b10101010101010101010101010101010 *W
b0 *X
b10101010101010101010101010101010 *Y
b10 *Z
0*[
b0 *\
x*]
0*^
0*_
1*`
0*a
1*b
0*c
0*d
0*e
1*f
0*g
0*h
0*i
1*j
0*k
0*l
0*m
0*n
0*o
b0 *p
b10101010101010101010101010101010101010101010101010101010101010101010101010101010101010101010101010101010101010 *q
b100000101010101010101010101010101010101010101010101010101010101010101000000000011111001100000000000000000000000 *r
b10101010101010101010101010101010101010101010101010101010101010101010101010101010101010101010101010101010101010 *s
b0 *t
0*u
b10101010101010101010101010101010 *v
b10101010101010101010101010101010 *w
b1010101010101010101010101010101010101010101010101010101010101010 *x
b10101010101010101010101010101010 *y
b10101010101010101010101010101010 *z
b1010101010101010101010101010101010101010101010101010101010101010 *{
b1010101010101010101010101010101010101010101010101010101010101010 *|
b10101010101010101010101010101010101010101010101010101010101010101010101010101010101010101010101010101010101010 *}
b100000101010101010101010101010101010101010101010101010101010101010101000000000011111001100000000000000000000000 *~
b10101010101010101010101010101010101010101010101010101010101010101010101010101010101010101010101010101010101010 +!
b10101010101010101010101010101010101010101010101010101010101010101010101010101010101010101010101010101010101010 +"
b1010101010101010101010101010101010101010101010101010101010 +#
b1010101010101010101010101010101010101010101010101010101010 +$
b0 +%
b0 +&
b10101010101010101010101010101010 +'
b10101010101010101010101010101010 +(
1+)
0+*
0++
0+,
0+-
0+.
1+/
0+0
1+1
0+2
0+3
0+4
1+5
b101010101010101010101010101010101010101010101010101010101010101000000000011111001100000000000000000000000 +6
b0 +7
b0 +8
b0 +9
b0 +:
b0 +;
b0 +<
b0 +=
b0 +>
b0 +?
b0 +@
0+A
b0 +B
b10101010101010101010101010101010 +L
0+M
b10101010101010101010101010101010 +N
b1010101010101010101010101010101010101010101010101010101010101010 +O
b10101010101010101010101010101010 +P
b10101010101010101010101010101010101010101010101010101010101010101010101010101010101010101010101010101010101010 +Q
1+R
b100000101010101010101010101010101010101010101010101010101010101010101000000000011111001100000000000000000000000 +S
b100000101010101010101010101010101010101010101010101010101010101010101000000000011111001100000000000000000000000 +T
0+U
b10101010101010101010101010101010101010101010101010101010101010101010101010101010101010101010101010101010101010 +V
b100000101010101010101010101010101010101010101010101010101010101010101000000000011111001100000000000000000000000 +W
0+X
b10101010101010101010101010101010101010101010101010101010101010101010101010101010101010101010101010101010101010 +Y
b100000101010101010101010101010101010101010101010101010101010101010101000000000011111001100000000000000000000000 +Z
0+[
b10101010101010101010101010101010101010101010101010101010101010101010101010101010101010101010101010101010101010 +\
b100000101010101010101010101010101010101010101010101010101010101010101000000000011111001100000000000000000000000 +]
0+^
b10101010101010101010101010101010101010101010101010101010101010101010101010101010101010101010101010101010101010 +_
b10101010101010101010101010101010101010101010101010101010101010101010101010101010101010101010101010101010101010 +`
0+a
b10101010101010101010101010101010101010101010101010101010101010101010101010101010101010101010101010101010101010 +b
b10101010101010101010101010101010101010101010101010101010101010101010101010101010101010101010101010101010101010 +c
0+d
b10101010101010101010101010101010101010101010101010101010101010101010101010101010101010101010101010101010101010 +e
b10101010101010101010101010101010101010101010101010101010101010101010101010101010101010101010101010101010101010 +f
0+g
b10101010101010101010101010101010101010101010101010101010101010101010101010101010101010101010101010101010101010 +h
b10101010101010101010101010101010101010101010101010101010101010101010101010101010101010101010101010101010101010 +i
0+j
b10101010101010101010101010101010101010101010101010101010101010101010101010101010101010101010101010101010101010 +k
b10101010101010101010101010101010101010101010101010101010101010101010101010101010101010101010101010101010101010 +l
0+m
b10101010101010101010101010101010101010101010101010101010101010101010101010101010101010101010101010101010101010 +n
b1010101010101010101010101010101010101010101010101010101010 +o
0+p
b1010101010101010101010101010101010101010101010101010101010 +q
b1010101010101010101010101010101010101010101010101010101010 +r
0+s
b1010101010101010101010101010101010101010101010101010101010 +t
b1010101010101010101010101010101010101010101010101010101010 +u
0+v
b1010101010101010101010101010101010101010101010101010101010 +w
b1010101010101010101010101010101010101010101010101010101010 +x
0+y
b1010101010101010101010101010101010101010101010101010101010 +z
b1010101010101010101010101010101010101010101010101010101010 +{
0+|
b1010101010101010101010101010101010101010101010101010101010 +}
b1010101010101010101010101010101010101010101010101010101010 +~
0,!
b1010101010101010101010101010101010101010101010101010101010 ,"
b1010101010101010101010101010101010101010101010101010101010 ,#
0,$
b1010101010101010101010101010101010101010101010101010101010 ,%
b1010101010101010101010101010101010101010101010101010101010 ,&
0,'
b1010101010101010101010101010101010101010101010101010101010 ,(
b1010101010101010101010101010101010101010101010101010101010 ,)
0,*
b1010101010101010101010101010101010101010101010101010101010 ,+
b1010101010101010101010101010101010101010101010101010101010 ,,
0,-
b1010101010101010101010101010101010101010101010101010101010 ,.
0A
1M
0P
0"i
1"u
0"x
b0 $h
x%9
0%<
0%L
0%N
0%U
1%V
1%W
1%X
1%Y
1%Z
1%[
1%]
1%^
1%a
1%d
1%x
1%z
0&5
0&7
0&>
b10101010101010101010101010101010101010101010101010101010101010101010101010101010101010101010101010101010101010 '-
b10101010101010101010101010101010101010101010101010101010101010101010101010101010101010101010101010101010101010 '.
b1010101010101010101010101010101010101010101010101010101010101010 '1
b1010101010101010101010101010101010101010101010101010101010101010 '2
b10101010101010101010101010101010101010101010101010101010101010101010101010101010101010101010101010101010101010 '3
b10101010101010101010101010101010101010101010101010101010101010101010101010101010101010101010101010101010101010 '4
1'A
b0 'f
0'n
0'|
1'}
1'~
1(!
1("
1(#
1($
1(&
1('
1(*
1(-
b0 (5
b10101010101010101010101010101010101010101010101010101010101010101010101010101010101010101010101010101010101010 )K
b10101010101010101010101010101010101010101010101010101010101010101010101010101010101010101010101010101010101010 )N
b10101010101010101010101010101010101010101010101010101010101010101010101010101010101010101010101010101010101010 )Q
b10101010101010101010101010101010101010101010101010101010101010101010101010101010101010101010101010101010101010 )T
b10101010101010101010101010101010101010101010101010101010101010101010101010101010101010101010101010101010101010 )W
b1010101010101010101010101010101010101010101010101010101010101010 )i
b1010101010101010101010101010101010101010101010101010101010101010 )l
b1010101010101010101010101010101010101010101010101010101010101010 )o
b1010101010101010101010101010101010101010101010101010101010101010 )r
b1010101010101010101010101010101010101010101010101010101010101010 )u
b10101010101010101010101010101010101010101010101010101010101010101010101010101010101010101010101010101010101010 )x
0)y
b10101010101010101010101010101010101010101010101010101010101010101010101010101010101010101010101010101010101010 ){
0)|
b10101010101010101010101010101010101010101010101010101010101010101010101010101010101010101010101010101010101010 )~
b10101010101010101010101010101010101010101010101010101010101010101010101010101010101010101010101010101010101010 *#
b10101010101010101010101010101010101010101010101010101010101010101010101010101010101010101010101010101010101010 *&
b0 *I
0*J
b0 *L
b0 *O
b0 *R
b0 *U
0*j
b10101010101010101010101010101010101010101010101010101010101010101010101010101010101010101010101010101010101010 *~
0+)
0+R
b10101010101010101010101010101010101010101010101010101010101010101010101010101010101010101010101010101010101010 +T
b10101010101010101010101010101010101010101010101010101010101010101010101010101010101010101010101010101010101010 +W
b10101010101010101010101010101010101010101010101010101010101010101010101010101010101010101010101010101010101010 +Z
b10101010101010101010101010101010101010101010101010101010101010101010101010101010101010101010101010101010101010 +]
#5
0!
1"H
1&$
1*g
#10
1@
0M
1N
1"h
0"u
1"v
1%5
1%6
1%9
1%<
1*o
b1010101110011001111110001110001100000000010000 *|
1+.
1+A
b100000000000000000000 +B
1!
1%2
1%3
#15
0!
#20
1<
0@
0N
1"d
0"h
0"v
b11110 $p
x%5
x%6
1%O
1&8
1&@
b1010101010101010101010101010101010101010101010101010101010 &K
1'p
1(8
1)C
1)R
b10101010101010101010101010101010101010101010101010101010101010101010101010101010101010101010101010101010101010 )T
b10101010101010101010101010101010101010101010101010101010101010101010101010101010101010101010101010101010101010 )W
1)a
1)p
b1010101010101010101010101010101010101010101010101010101010101010 )r
b1010101010101010101010101010101010101010101010101010101010101010 )u
1*!
b10101010101010101010101010101010101010101010101010101010101010101010101010101010101010101010101010101010101010 *#
b10101010101010101010101010101010101010101010101010101010101010101010101010101010101010101010101010101010101010 *&
1*0
1*J
b0 *K
1*]
0*o
1*u
0+.
1!
0%3
1%4
1%8
b1 %:
b0 +L
1+M
b11111111111111111111 +N
b1010101110011001111110001110001100000000010000 +O
b100000000000000000000 +P
#25
0!
#30
0<
1>
0"d
1"f
b100000000 $q
b101000 $r
0%O
0&8
0&@
1&H
b10101010101010101010101010101010101010101010101010101010101010101010101010101010101010101010101010101010101010 '-
b10101010101010101010101010101010101010101010101010101010101010101010101010101010101010101010101010101010101010 '.
b1010101010101010101010101010101010101010101010101010101010101010 '1
b1010101010101010101010101010101010101010101010101010101010101010 '2
b10101010101010101010101010101010101010101010101010101010101010101010101010101010101010101010101010101010101010 '3
b10101010101010101010101010101010101010101010101010101010101010101010101010101010101010101010101010101010101010 '4
0'p
1'x
b100000000 (B
0)C
b10101010101010101010101010101010101010101010101010101010101010101010101010101010101010101010101010101010101010 )K
b10101010101010101010101010101010101010101010101010101010101010101010101010101010101010101010101010101010101010 )N
b10101010101010101010101010101010101010101010101010101010101010101010101010101010101010101010101010101010101010 )Q
0)R
0)a
b1010101010101010101010101010101010101010101010101010101010101010 )i
b1010101010101010101010101010101010101010101010101010101010101010 )l
b1010101010101010101010101010101010101010101010101010101010101010 )o
0)p
b10101010101010101010101010101010101010101010101010101010101010101010101010101010101010101010101010101010101010 )x
b10101010101010101010101010101010101010101010101010101010101010101010101010101010101010101010101010101010101010 ){
b10101010101010101010101010101010101010101010101010101010101010101010101010101010101010101010101010101010101010 )~
0*!
0*0
0*J
x*]
1!
0%4
b10 %:
b11 *\
#35
0!
#40
0>
1A
b10101010101010101010101010101010101010101010101010101010101010101010101010101010101010101010101010101010101010101010101010101010101010101010101010101010101010101010101010101010101010101010101010101010101010101010101010101010101010101010101010101010101010100000000000000000000000000000001000000000000000000000000000000001 "I
0"f
1"i
0&H
0'x
1!
b11 %:
b100000000 *Y
#45
0!
#50
0A
1L
1O
0"i
1"t
1"w
b10 #N
b10101010101010101010101010101010101010101010101010101010101010101010101010101010101010101010101010101010101010101010101010101010101010101010101010101010101010101010101010101010101010101010101010101010101010101010101010101010101010101010101010101010101010100000000000000000000000000000001000000000000000000000000000000001 $n
1!
b10101010101010101010101010101010101010101010101010101010101010101010101010101010101010101010101010101010101010101010101010101010101010101010101010101010101010101010101010101010101010101010101010101010101010101010101010101010101010101010101010101010101010100000000000000000000000000000001000000000000000000000000000000001 %0
b100 %:
#55
0!
